











  ## ✅ हाल ही में बसवराज बोम्मई ने AAYU नामक एप को लांच किया है
![Karnataka: मुख्यमंत्री बसवराज बोम्मई ने कहा- कोई भी पद स्थाई नहीं, सीएम पद  से हटने की लगने लगीं अटकलें | TV9 Bharatvarsh](https://images.tv9hindi.com/wp-content/uploads/2021/12/Basavaraj_Bommai-1.jpg)

  ## ✅ हाल ही में बांग्लादेश देश को 17वे मुंबई अंतराष्ट्रीय फिल्म महोत्सव में 'कंट्री ऑफ़ फोकस' चुना गया है
![Portal:Bangladesh/Map - Wikipedia](https://upload.wikimedia.org/wikipedia/commons/thumb/b/be/Un-bangladesh.png/1000px-Un-bangladesh.png)

  ## ✅ हाल ही में RJ उमर निसार को UNICEF द्वारा प्रतिरक्षण चैंपियनशिप पुरस्कार मिला है
![Rj Umar Nisar on Twitter: "The new look out! #RamzanVibes #RjUmarNisar  https://t.co/nQRQ2jtxQS" / Twitter](https://pbs.twimg.com/media/D6ha___UEAciwdD.jpg)

  ## ✅ हाल ही में LIC ने बिमा रत्न नामक एक बचत बीमा योजना शुरू की है
![LIC rolls out new customer-centric initiatives](https://assets.thehansindia.com/h-upload/2020/12/12/1017938-lic.webp)

  ## ✅ हाल ही में संजीत नार्वेकर को डॉ वी शांताराम लाइफटाइम अचीवमेंट पुरस्कार से सम्मानित किया गया है
![Do You Remeber Sanjay Dutt Vaastav Dedh Footiya Actor Sanjay Narvekar See  Pics - Navbharat Times](https://static.langimg.com/thumb/msid-87309655,width-680,resizemode-3/navbharat-times.jpg)

  ## ✅ हाल ही में टाटा मोटर्स ने गुजरात राज्य के फोर्ड इंडिया प्लांट को खरीदने के लिए समझौता किया है
![Ford's India Factory Workers Seek Government Help To Safeguard Jobs | Mint](https://images.livemint.com/img/2021/09/15/1600x900/APPLE-FORD-MOTOR-3_1631664992895_1631665017955.JPG)



  # **[प्रतिदिन प्रैक्टिस सेट]**
  👉 https://forms.gle/KKYewg9HDTFYp9yL6
