















  ## ✅ हाल ही में अविनाश साबले(महाराष्ट्र) पुरुषो की 300 मीटर स्टीपलचेस में राष्ट्रीय रिकॉर्ड धारक बने है  
![Tokyo Olympics: Why did Avinash Sable not qualify for the final?](https://thebridge.in/h-upload/2021/07/30/12376-avinash-sable.webp)

  ## ✅ हाल ही में UDAN योजना के तहत भारत सरकार ने कुल 780 हवाई यातायात मार्गो को मंजूरी दी है 
![UDAN 4.0: Government launches 4th round of air connectivity scheme](https://img.jagranjosh.com/imported/images/E/GK/Udan_scheme_4.jpg)

  ## ✅ हाल ही में भारत सरकार ने प्री-स्कूल बच्चो के लिए विद्या प्रवेश पहल की शुरुआत की है  
![Narendra Modi | PM Narendra Modi Address Teachers And Students On New  Education Policy | विद्या प्रवेश से प्ले स्कूल का कॉन्सेप्ट गांवों तक  पहुंचेगा, इंजीनियरिंग की पढ़ाई 11 ...](https://images.bhaskarassets.com/web2images/521/2021/07/29/gif-modi-ki-4-baatein3_1627563302.gif)

  ## ✅ हाल ही में भारतीय रिज़र्व बैंक ने मडगाम अर्बन कोआपरेटिव बैंक का लाइसेंस रद्द कर दिया है 
![RBI Cancelled the License of Madgaum Urban Co-operative Bank](https://affairscloud.com/assets/uploads/2021/07/Urban-Co-operative-Bank.jpg)

  ## ✅ हाल ही में इसरो-नासा ने संयुक्त मिशन निसार उपग्रह 2023 में लांच करने की घोषणा की गयी है 
![NASA-ISRO satellite NISAR - To The Point - YouTube](https://i.ytimg.com/vi/HKCD8g17dGk/maxresdefault.jpg)

  ## ✅ हाल ही में वाईस एडमिरल एस एन घोरमडे नौसेना स्टाफ के नए उपप्रमुख बने है 
![Vice Admiral SN Ghormade takes charge as Vice Chief of the Naval Staff -  PrepareExams](https://www.prepareexams.com/wp-content/uploads/2021/08/Vice-Admiral-SN-Ghormade-takes-charge-as-Vice-Chief-of-the-Naval-Staff.jpg)

  ## ✅ हाल ही में जारी जैविक डेटाबेस में भारत की रैंक 4 आयी है 
![Homepage - Organic India](https://organicindiausa.com/wp-content/uploads/OI-logo-full-color.png)

  ## ✅ हाल ही में मिरेकल मॉम ऑफ़ चंडीगढ़ नाम से प्रसिद्ध मान कौर का निधन हुआ है, ये एक प्रसिद्ध धावक थी 
![Chandigarh&#39;s miracle mom Mann Kaur dies at 105](https://i.ytimg.com/vi/jT6NdU4mdks/maxresdefault.jpg)





  # **प्रतिदिन प्रैक्टिस सेट**
  👉 https://forms.gle/HZFPC46F6hXTu9eK9
