

  ## ✅ हाल ही में WTO ने 2022 में 03% वैश्विक व्यापर वृद्धि का नुमान लगाया है
![World Trade Organization - Home page - Global trade](http://www.wto.org/images/placeholder_md.jpg)

  ## ✅ हाल ही में प्रेम रावत ने 'हिअर योरसेल्फ' नामक पुस्तक लिखा है
![TimelessToday. Hear Yourself](https://www.timelesstoday.tv/content/images/thumbs/0007337_hear-yourself.jpeg)

  ## ✅ हाल ही में जी किशन रेड्डी ने दुनिया भर में भारत के विभिन्न पर्यटन छेत्रो को लोकप्रिय पर्यटन स्थलों के रूप में बढ़ावा देने के लिए 'उत्सव पोर्टल' को लांच किया है
![Cabinet Reshuffle: G Kishan Reddy](https://images.news18.com/ibnlive/uploads/2021/07/1625652338_g-kishan-reddy.jpg)

  ## ✅ हाल ही में सौरव गांगुली हैवेल्स इंडिया के उपभोक्ता सामान ब्रांड 'लॉयड' के नए ब्रांड एम्बेसडर बने है
![Llyod appoints Sourav Ganguly as brand ambassador for Eastern Indian  markets | SportsMint Media](https://sportsmintmedia.com/wp-content/uploads/2022/04/Llyod-appoints-Sourav-Ganguly-as-brand-ambassador-for-Eastern-Indian-markets.jpg)



  # **[प्रतिदिन प्रैक्टिस सेट]**
  👉 https://forms.gle/dZP1MpruLEm2UgB3A
