











  ## ✅ हाल ही में विवेक राम चौधरी को वायुसेना का नया एयर चीफ मार्शल नियुक्त किया गया है 
![Vivek Ram Chaudhari Biography, State, Salary, Age, Wiki](https://i1.wp.com/rytez.com/wp-content/uploads/2021/09/VR-Chaudhari.jpg)

  ## ✅ हाल ही में उत्तर प्रदेश राज्य सरकार ने नॉएडा में इलेक्ट्रॉनिक पार्क स्थापित करने की घोषणा की है 
![Odisha&#39;s Greenfield Electronic Park Receives Central Nod](https://updateodisha.com/wp-content/uploads/2016/06/Odishas-Greenfield-Electronic-Park-Receives-Central-Nod.jpg)

  ## ✅ हाल ही में जस्टिन ट्रूडो कनाडा देश के तीसरी बार प्रधानमंत्री चुने गए है 
![Canada votes in pandemic election that could cost Justin Trudeau - World  News](https://akm-img-a-in.tosshub.com/indiatoday/images/story/202109/trudeau_RTS_1200x768.jpeg?oo_Vrwdh5r93cKI_DEkMS6iKBQRoF8yb&size=770:433)

  ## ✅ हाल ही में भारतीय महिला टीम की कप्तान मितली राज ने 20 हज़ार रन पुरे किए है 
![Mitali Raj Birthday Special First Player In World To Score 6,000 Runs And  Above In Wodis - B&#39;day Spcl: ये मुकाम हासिल करने वाली दुनिया की इकलौती  बल्लेबाज, दिलों पर करती हैं &#39;](https://spiderimg.amarujala.com/assets/images/2018/12/03/750x506/mithali-raj_1543784858.jpeg)

  ## ✅ हाल ही में प्रभलीन सिंह ने 'शाइनिंग सिख युथ ऑफ़ इंडिया' नामक पुस्तक लिखी है 
![Sikhs Have a Major Role in Nation Building and Sikh Youth Must Come Forward  To Continue This Legacy: Rajnath Singh – Financial News Day](https://financialnewsday.com/wp-content/uploads/2021/09/WhatsApp-Image-2021-09-20-at-2.59.38-PM.jpeg)






  # **[प्रतिदिन प्रैक्टिस सेट]**
  👉 https://forms.gle/G4i7wQs59Daj4P1s6


