







  ## ✅ हाल ही में लद्दाख में स्पितुक त्यौहार 2022 मनाया गया है
![Spituk Gustor Festival 2022 | Festivals of Ladakh | Adotrip](https://www.adotrip.com/public/images/festivals/5e15c725dfda6-Spituk%20Gustor%20Sight%20Seeing%20Tour.jpg)

  ## ✅ हाल ही में केंद्र सरकार ने 150 गावों को उत्कृष्ट गावों में बदलने के लिए इजराइल देश के साथ समझौता किया है
![Vector Highly Detailed Political Map Of Israel Stock Illustration -  Download Image Now - iStock](https://media.istockphoto.com/vectors/vector-highly-detailed-political-map-of-israel-vector-id1020538046)

  ## ✅ हाल ही में किरण बेदी ने 'फीयरलेस गवर्नेंस' नामक पुस्तक लिखी है
![Book Release - Fearless Governance by Dr. Kiran Bedi - YouTube](https://i.ytimg.com/vi/fWCvqKet5gY/maxresdefault.jpg)

  ## ✅ हाल ही में Xiomara Castro होंडुरास देश की पहली महिला राष्ट्रपति बनी है
![Honduras: Xiomara Castro sworn in as first female president | News | DW |  27.01.2022](https://static.dw.com/image/60570239_303.jpg)

  ## ✅ हाल ही में जबलपुर मध्य प्रदेश में भारत का पहला 'भूवैज्ञानिक पार्क' बनाया गया है
![MP District Map HD](https://www.burningcompass.com/countries/india/maps/madhya-pradesh-district-map-hd.jpg)

  ## ✅ हाल ही में चेन्नई सुपरकिंग टीम देश का पहला स्पोर्ट्स यूनिकॉर्न IPL टीम बनी है
![IPL 2020: Full squad, players list of Chennai Super Kings - DTNext.in](https://img.dtnext.in/Articles/2020/Sep/202009171914574942_IPL-2020-Full-squad-players-list-of-Chennai-Super-Kings_SECVPF.gif)

  ## ✅ हाल ही में पी.आर श्रीजेश 'वर्ल्ड गेम्स एथलिट ऑफ़ द ईयर पुरस्कार 2021' जीतने वाले पहले भारतीय पुरुष खिलाडी बने है
![EXCLUSIVE: PR Sreejesh slams critics after Tokyo heroics, says &#39;this is the  answer for questioning us in 2012&#39; | Other Sports News | Zee News](https://english.cdn.zeenews.com/sites/default/files/2021/08/05/957453-sreejesh-970.jpg)









  # **[प्रतिदिन प्रैक्टिस सेट]**
  👉 https://forms.gle/RC2yHCmgxtDxLvqR7
