





















  ## ✅ हाल ही में झारखण्ड राज्य सरकार ने जल आपूर्ति के बुनियादी ढाँचे को सुधरने के लिए ADB(एशियन विकास बैंक) से 112 मिलियन डॉलर का रण लिया है  
![PrepareExams | A Step To Learn | Page 2](https://www.prepareexams.com/wp-content/uploads/2021/09/ADB-approves-112-million-loans-to-improve-water-supply-infrastructure-in-Jharkhand-696x392.jpg)

  ## ✅ हाल ही में मेक्सिको देश के कोहुईला राज्य के सर्वोच्च न्यायालय ने गर्भपात को संवैधानिक घोषित किया है 
![Mexico Map, Map of Mexico (Mapa de México) - Free Download Here](https://www.whereig.com/mexico/mexico-map.jpg)

  ## ✅ हाल ही में भारत सरकार ने राजस्थान राज्य के बाड़मेर में राष्ट्रीय राजमार्ग 925 पर आपातकाल लैंडिंग फील्ड का उद्घाटन किया है 
![Emergency landing strip for IAF planes on Barmer national highway  inaugurated, Rajnath Singh, Nitin Gadkari attend | India News | Zee News](https://english.cdn.zeenews.com/sites/default/files/styles/zm_700x400/public/2021/09/09/968940-emergency-landing-lead.jpg)

  ## ✅ हाल ही में चंडीगढ़ में भारत के सबसे ऊँचा एयर प्यूरिफायर का उदघाटन किया गया है  
![India&#39;s tallest air purifier tower installed in Chandigarh](https://st.adda247.com/https://wpassets.adda247.com/wp-content/uploads/multisite/sites/5/2021/09/09065215/AIR.jpg)




  # **[प्रतिदिन प्रैक्टिस सेट]**
  👉 https://forms.gle/G4i7wQs59Daj4P1s6


