


















  ## ✅ हाल ही में नागेश सिंह थाइलैंड देश में भारत के नए राजदूत नियुक्त हुए है
![Nagesh Singh, Joint Secretary in MEA, appointed India's ambassador to  Thailand | DH Latest News, DH NEWS, Latest News, India, NEWS, International  , thailand, Indian Ambassador, ministry of external affairs, Nagesh Singh](https://www.eastcoastdaily.in/wp-content/uploads/2022/08/jdcnkds.jpg)

  ## ✅ हाल ही में रिलायंस इंडस्ट्रीज ने हजीरा गुजरात में भारत के पहले और दुनिया के सबसे बड़े 'कार्बन फाइबर सयंत्र' का उदघाटन किया है
![Mukesh Ambani fifth richest man Reliance Industries market valuation Rs 14  lakh cr-mark RIL Reliance Jio google facebook | Business News – India TV](https://resize.indiatvnews.com/en/resize/newbucket/1200_-/2020/07/mukesh-ambani-1595511349.jpg)

  ## ✅ हाल ही में राष्ट्रीय अपराध रिकॉर्ड ब्यूरो द्वारा जारी 'क्राइम इन इंडिया रिपोर्ट 2021' के अनुसार दिल्ली शहर भारत में महिलाओं के लिए सबसे असुरक्षित शहरों की सूचि में शीर्ष स्थान पर रहा है
![Map of Delhi showing location of our study area (East Delhi) [Image... |  Download Scientific Diagram](https://www.researchgate.net/publication/356543557/figure/fig2/AS:1095529308135425@1638205949070/Map-of-Delhi-showing-location-of-our-study-area-East-Delhi-Image-obtained-online-from.png)

  ## ✅ हाल ही में अभिनेता रणबीर सिंह ने 'द टाइम्स ग्रुप' द्वारा प्रस्तुत '67वे फिल्मफेयर पुरस्कार 2021' में सर्वश्रेष्ठ अभिनेता का खिताब जीता है
![Ranbir Kapoor Reveals The Name Of His Favourite Leading Lady, Says 'We Have  A Good Creative Energy'](https://images.news18.com/ibnlive/uploads/2022/06/ranvbir.jpg)

  ## ✅ हाल ही में गौतम अडानी 'ब्लूमबर्ग बिल्लिनियर्स इंडेक्स 2022' के अनुसार दुनिया के तीसरे सबसे अमीर व्यक्ति बन गए है
![Indian tycoon Gautam Adani named world's third richest person | Rich lists  | The Guardian](https://i.guim.co.uk/img/media/840ce954b62ad359b7dadc9b20e9dd2689cac399/0_280_3500_2099/master/3500.jpg?width=620&quality=85&fit=max&s=23c48a4bf3be59f0a904d7a99c0b7b26)

  ## ✅ हाल ही में हवा में जल वाष्प को पीने योग्य पानी में बदलने के लिए भारतीय मध्य रेलवे ने मुंबई में 'मेघदूत' नामक मशीन स्थापित की है
![Indian Railway installed 'Meghdoot' machines at Mumbai stations](https://st.adda247.com/https://wpassets.adda247.com/wp-content/uploads/multisite/sites/5/2022/09/01075939/download.jpg)

  ## ✅ हाल ही में भारतीय वायु सेना ने जोधपुर राजस्थान में 'स्वदेशी हल्के लड़ाकू हेलीकोप्टरों' की पहली इकाई स्थापित की है
![District Map of Rajasthan in Hindi | World geography map, Geography map,  India world map](https://i.pinimg.com/736x/bc/6a/ee/bc6aee2ae5a29b830d81127f96a5a4a5--maps.jpg)

  ## ✅ हाल ही में Nicole Mann अंतराष्ट्रीय स्पेस स्टेशन के लिए निर्धारित 'स्पेस-क्रू 5' मिशन 2022 के साथ अंतरिक्ष में जाने वाली अमेरिका मूल की पहली महिला बनी है
![Meet Artemis Team Member Nicole Mann - YouTube](https://i.ytimg.com/vi/cyePTXNJ1p4/maxresdefault.jpg)




  # **[प्रतिदिन प्रैक्टिस सेट]**
  👉 https://forms.gle/hy8w5gyZUrK8LFi96
