












  ## ✅ हाल ही में हरदीप सिंह पूरी ने निर्माण श्रमिकों कौशल को बेहतर करने के लिए 'निपुण' नामक अभिनव परियोजना की शुरुआत की है
![निपुण भारत 2022: कार्यान्वयन प्रक्रिया, NIPUN Bharat नई गाइडलाइन्स पीडीएफ](https://pmmodiyojana.in/wp-content/uploads/2021/07/nishank-launched-nipun-bharat-mission_1625509137-1024x683.jpeg)

  ## ✅ हाल ही में नरेंद्र मोदी ने मुंबई शहर में स्वतंत्रता सेनानियों के सम्मान में 'क्रांतिकारियों की गैलरी' का उदघाटन किया है
![क्रांति गाथा संग्रहालय - क्रांतिकारियों की गैलरी | Gallery of  Revolutionaries | Pariksha Idea - YouTube](https://i.ytimg.com/vi/cda4xtmf8n8/maxresdefault.jpg)

  ## ✅ हाल ही में फातिमा पेमान ऑस्ट्रेलिया देश की संसद में हिजाब पहनने वाली पहली मुस्लिम महिला बनी है
![Profile: Fatima Payman ने पिता से ली संघर्ष की प्रेरणा, अब बनीं ऑस्ट्रेलिया  की सांसद, जानिए कौन हैं पहली हिजाबी महिला - Fatima Payman became first  hijabi woman become member ...](https://akm-img-a-in.tosshub.com/aajtak/images/story/202206/fatima_payman-sixteen_nine.jpg?size=948:533)

  ## ✅ हाल ही में प्रधानमंत्री नरेंद्र मोदी ने बैंगलोर शहर में 'सेंटर फॉर ब्रेन रिसर्च' का उदघाटन किया है
![PM Modi Inaugurates Centre For Brain Research At IISC Bengaluru](https://www.ndtv.com/education/cache-static/media/presets/625X400/article_images/2022/6/20/pm_modi_iisc_bengaluru.webp)

  ## ✅ हाल ही में आर.एन भास्कर ने 'गौतम अडानी:द मैन हु चेंज्ड इंडिया' नामक पुस्तक लिखी है
![Gautam Adani: The Man Who Changed India” Book by RN Bhaskar - Prepareexams](https://www.prepareexams.com/wp-content/uploads/2022/06/Gautam-Adani-The-Man-Who-Changed-India-Book-by-RN-Bhaskar.jpg)

  ## ✅ हाल ही में मंगोलिया देश में आयोजित 'महिला शांति और सुरक्षा संगोष्ठी' में भारतीय सैनिकों ने भाग लिया है
![Mongolia Maps and Provinces | Mappr](https://cdn.mappr.co/wp-content/uploads/2021/11/mongolia-map-scaled.jpg)





  # **[प्रतिदिन प्रैक्टिस सेट]**
  👉 https://forms.gle/KKYewg9HDTFYp9yL6
