









  ## ✅ हाल ही में कनाडा देश में भारतीय जनजातीय कला और शिल्प को बढ़ावा देने के लिए 'आत्मनिर्भर भारत' का उदघाटन किया गया है 
![Atma Nirbhar Bharat Scheme: A Blessing in Disguise - Aatmnirbhar Sena](https://aatmnirbharsena.org/blog/wp-content/uploads/2020/09/Aatm-Nirbhar-Bharat-Scheme.jpg)

  ## ✅ हाल ही में अरब सागर में शाहीन नामक चक्रवात आया है, इसका नामकरण क़तर देश ने किया है  
![These states to receive heavy rainfall due to impact of cyclone Shaheen  till 4 October predicts IMD](https://images.livemint.com/img/2021/10/01/600x338/shaheen_1633077066296_1633077087881.png)










  # **[प्रतिदिन प्रैक्टिस सेट]**
  👉 https://forms.gle/QRgPHQGH9dW4EBKS7


