





  ## ✅ हाल ही में डेनमार्क देश को मदर टेरेसा मेमोरियल पुरस्कार 2021 से सम्मानित किया गया है
![Denmark Map And 100 More Free Printable International Maps | Denmark map,  Copenhagen map, International map](https://i.pinimg.com/originals/c9/5e/0e/c95e0ede7356743dee0102b7b933508d.png)

  ## ✅ हाल ही में Crypto Wire ने भारत में क्रिप्टो करेंसी पर नज़र रखने के लिए देश का पहला क्रिप्टो इंडेक्स IC15 लांच किया है
![CryptoWire Launches India&#39;s First Global Crypto Index - The Crypto Times](https://www.cryptotimes.io/wp-content/uploads/2022/01/Cryptowire-Global-Index-Website-800x500.jpg)

  ## ✅ हाल ही में पुडुचेर्री में राष्ट्रीय युवा महोत्सव 2022 का आयोजन किया गया है
![Pondicherry](https://dste.py.gov.in/pccc/images/Pdy.jpg)

  ## ✅ हाल ही में भारतीय मूल के अतुल कश्यप को 'चैम्बर्स ऑफ़ कॉमर्स द्वारा USA-India बिज़नेस कॉउन्सिल' का नया अध्यक्ष चुना गया है
![Atul Keshap is US ambassador to India](https://www.awazthevoice.in/upload/news/1625041695mbsq_(6).jpg)

  ## ✅ हाल ही में सामाजिक कार्यकर्ता सिंधु सकपाल का निधन हुआ है, इन्हे 'महाराष्ट्र की मदर टेरेसा' कहा जाता था
![Sindhutai Sapkal (Social Worker) Wiki, Age, Death Cause, Achievements,  Biography &amp; More](https://i0.wp.com/wikiwiki.in/wp-content/uploads/2022/01/Sindhutai-Sapkal-Social-Worker.jpg?fit=1280%2C720&ssl=1)


  # **[प्रतिदिन प्रैक्टिस सेट]**
  👉 https://forms.gle/fC8ae8ivea4gp7zq8
