








  ## ✅ हाल ही में मुकुल रहतोगी भारत के 14वे महान्यायवादी बने है
![Mukul Rohatgi: A lawyer with uncanny abilities, long list of clients |  Latest News India - Hindustan Times](https://images.hindustantimes.com/img/2022/09/13/550x309/bfcd8502-3337-11ed-8444-8bd3a43ea4de_1663090896962.jpg)

  ## ✅ हाल ही में समरकंद उज़्बेकिस्तान में 'शंघाई सहयोग संगठन' के राष्ट्रयपतियों की 22वी बैठक आयोजित हुई है
![Uzbekistan Maps & Facts - World Atlas](https://www.worldatlas.com/upload/39/19/be/regions-of-uzbekistan-map.png)

  ## ✅ हाल ही में छत्तीसगढ़ राज्य सरकार ने मवेशियों को चिकित्सा प्रदान करने के लिए 'मुख्यमंत्री गोवंश मोबाइल चिकित्सा योजना' शुरू किया है
![Mukhymantri Govansh Mobile Chikitsa Yojana 2022 - CSC VLE NEWS](https://vlenews.com/wp-content/uploads/2022/09/%E0%A4%AE%E0%A5%81%E0%A4%96%E0%A5%8D%E0%A4%AF%E0%A4%AE%E0%A4%82%E0%A4%A4%E0%A5%8D%E0%A4%B0%E0%A5%80-%E0%A4%97%E0%A5%8B%E0%A4%B5%E0%A4%82%E0%A4%B6-%E0%A4%AE%E0%A5%8B%E0%A4%AC%E0%A4%BE%E0%A4%87%E0%A4%B2-%E0%A4%9A%E0%A4%BF%E0%A4%95%E0%A4%BF%E0%A4%A4%E0%A5%8D%E0%A4%B8%E0%A4%BE-%E0%A4%AF%E0%A5%8B%E0%A4%9C%E0%A4%A8%E0%A4%BE.jpg)

  ## ✅ हाल ही में नितिन गडकरी ने ड्रोन के जरिए मानव अंगो को अस्पताल पहुंचाने के लिए भारतीय ड्रोन प्रौद्योगीकी के पहले प्रोटोटाइप का अनावरण किया है
![Nitin Gadkari suggests Skybus tech, stacked flyovers to decongest Bengaluru  | Deccan Herald](https://www.deccanherald.com/sites/dh/files/articleimages/2022/09/09/pti09092022000287a-1-1143706-1662740391.jpg)

  ## ✅ हाल ही में Agnikul Cosmos(चेन्नई) कंपनी 'Agnilet' नामक 3D प्रिंटेड रॉकेट इंजन डिज़ाइन करने वाली दुनिया की पहली कंपनी बनी है
![Indian start-up AgniKul Cosmos' rocket to be test launched from US facility  | India News | Zee News](https://english.cdn.zeenews.com/sites/default/files/2020/09/30/889516-pjimage.jpg)

  ## ✅ हाल ही में अल्लू अर्जुन ने 10वे दक्षिण भारतीय अंतराष्ट्रीय फिल्म पुरस्कार 2022 में सर्वश्रेष्ठ अभिनेता का खिताब जीता है
![Allu Arjun on Working in Bollywood: 'Hindi Is Out of My Comfort Zone But...'](https://gumlet.assettype.com/thequint/2022-07/555d23d0-5731-412b-a3bc-5377effda36a/article_202211917234162621000.jpg)



  # **[प्रतिदिन प्रैक्टिस सेट]**
  👉 https://forms.gle/hy8w5gyZUrK8LFi96
