













  ## ✅ हाल ही में मुकेश अंबानी ने फोब्स इंडिया रिच लिस्ट में टॉप किया है
![Mukesh Ambani tops Forbes India Rich List 2021](https://st.adda247.com/https://wpassets.adda247.com/wp-content/uploads/multisite/sites/5/2021/10/08073122/Forbes-India-Rich-List-1568x882.jpg)

  ## ✅ हाल ही में पंचायती राज मंत्रालय ने 'स्वामित्व' योजना की शुरुआत की है
![स्वामित्व योजना क्या है - PM Swamitva Yojana लाभ, पात्रता ऑनलाइन पंजीकरण](https://pmmodiyojana.in/wp-content/uploads/2020/10/Swamitva-Yojana.jpg)





  # **[प्रतिदिन प्रैक्टिस सेट]**
  👉 https://forms.gle/QRgPHQGH9dW4EBKS7


