





  ## ✅ हाल ही में आम आदमी पार्टी भारत की कौनसे नंबर की राष्ट्रीय पार्टी बनी है- 9वे
![AAP Become National Party](https://st.adda247.com/https://s3-ap-south-1.amazonaws.com/adda247jobs-wp-assets-adda247/articles/wp-content/uploads/2022/12/09173348/AAP-as-a-National-Party.jpg)

  ## ✅ किसे श्री चन्द्रशेखरेंद्र सरस्वती नेशनल अचीवमेंट अवार्ड प्रदान किया गया है- वैंकयाह नायडू
![5 reasons why Venkaiah Naidu is BJP candidate for vice-president poll -  India Today](https://akm-img-a-in.tosshub.com/indiatoday/images/story/201707/venkiah-2_647_060616093258_062217091412_071717074546.jpg)

  ## ✅ किस देश ने नेक्स्ट जनरेशन के लिए 'वर्ल्ड फर्स्ट टोबैको लॉ' पारित किया है- नूज़ीलैण्ड
![New Zealand Maps & Facts - World Atlas](https://www.worldatlas.com/upload/a8/1b/ff/nz-01.png)

  ## ✅ किसकी रिपोर्ट के अनुसार महिलाएं भारत में सार्वजानिक परिवहन की प्राथमिक उपभोगकर्ता है- विश्व बैंक
![India The First Country in The World to Receive $100 billion in Remittances](https://wpassets.adda247.com/wp-content/uploads/multisite/sites/5/2022/12/06102735/Pakistans-remittances-are-expected-to-decline-by-7.jpg)
