

  ## ✅ हाल ही में वर्ष 2023 से महिला IPL आयोजित होने वाला है
![Women's IPL: 2023 में शुरू होगा महिला आईपीएल, बीसीसीआई सचिव जय शाह ने दी  जानकारी - Amrit Vichar](https://amritvichar.com/wp-content/uploads/2022/02/ipl-team-1.jpg)

  ## ✅ हाल ही में ज्योति यराजी 13सेकंड के बैरियर को तोड़ने वाली पहली भारतीय महिला हर्डलर बनी है
![Jyothi Yarraji Biography: Achievements, Personal Life, Family, Unknown  Facts & Social Media](https://www.sportzcraazy.com/wp-content/uploads/2022/07/image-2022-07-23T185401.190.png)

  ## ✅ हाल ही में वर्ष 2022 में नवंबर माह को पंजाबी मातृभाषा को समर्पित 'पंजाबी माह' के तौर पर मानाया गया है
![Punjab Map Download Free Map In Pdf - Infoandopinion](https://www.infoandopinion.com/wp-content/uploads/2019/10/Punjab-Map-disrtict-960x1024.png)

  ## ✅ हाल ही में प्रधानमंत्री नरेंद्र मोदी ने राष्ट्र को कुल 75 डिजिटल बैंकिंग इकाइयां समर्पित की है
![PM Modi to inaugurate 75 Digital Banking Units across 75 districts on Oct 16](https://knnindia.co.in/uploads/newsfiles/DIGITAL-BANKING-15-10-2022.jpg)

  ## ✅ हाल ही में श्रीलंका देश के उपन्यासकार शूहान करुणातिलका के उपन्यास को 2022 का बुकर पुरस्कार मिला है
![मिशन शिक्षक भर्ती [CTET, State TET and Super TET] | Facebook](https://encrypted-tbn0.gstatic.com/images?q=tbn:ANd9GcRf0HQFk66Hdl6mOuWGnx0szBtSKbbILyTQpeyhVaTb7CaXVCmT-fTqhTNc6rusWuPZ0gY&usqp=CAU)




  # **[प्रतिदिन प्रैक्टिस सेट]**
  👉 https://forms.gle/FwtYv8ZHJgvtR7yw7
