









  ## ✅ हाल ही में मिनाक्षी लेखी ने ब्रिक्स देशो के संस्कृति मंत्रियों की 7वी बैठक में भारत की तरफ से अध्यक्षता की है
![Meenakshi Lekhi - Wikipedia](https://upload.wikimedia.org/wikipedia/commons/3/3f/Smt._Meenakshi_Lekhi_%28cropped%29.jpg)

  ## ✅ हाल ही में जारी विश्व आर्थिक मंच द्वारा जारी 'यात्रा और पर्यटन प्रतिस्पर्धात्मक सूचकांक 2021' में भारत देश 54वे स्थान पर है
![File:RO Roadsign 54.svg - Wikimedia Commons](https://upload.wikimedia.org/wikipedia/commons/thumb/0/0f/RO_Roadsign_54.svg/1200px-RO_Roadsign_54.svg.png)

  ## ✅ हाल ही में अंतराष्ट्रीय ओलंपिक समिति ने ओडिशा राज्य में भारत का पहला 'ओलंपिक मूल्य शिक्षा कार्यक्रम' शुरू किया है
![भारत में शुरू हुआ ओलंपिक मूल्य शिक्षा कार्यक्रम, इस राज्य में मिलेगा  परियोजना का लाभ](https://static-ai.asianetnews.com/images/01g3tpwtm2a49tj37bj2e6wezn/olympic-values-education-programme-launched-in-india-in-odisha_710x400xt.jpg)






  # **[प्रतिदिन प्रैक्टिस सेट]**
  👉 https://forms.gle/cR3bZdaugCrsnNWY8
