
# **नवंबर प्रैक्टिस सेट**
  👉 https://forms.gle/1hevTKBybTP2HEJJ8

  ## ✅ फ्रांस देश ने सैन्य संचार उपग्रह 'सिराक्यूज 4ए' लांच किया है
![France Map | Maps of French Republic](https://ontheworldmap.com/france/map-of-france.jpg)

  ## ✅ प्रधानमंत्री नरेंद्र मोदी ने इटली देश में हो रहे G20 शिखर सम्मलेन में भाग लिया है
![G20 Summit: PM Modi and other world leaders pose for &#39;family photo&#39; with  frontline workers in Rome | Visuals - India News](https://akm-img-a-in.tosshub.com/indiatoday/images/story/202110/AP10_30_2021_000116B_0_1200x768.jpeg?Og9W20rZL.8zuXZH2X_7aNTO8TF.y5Kp&size=770:433)

  ## ✅ महाराष्ट्र राज्य अपनी स्वयं की वन्यजीव कार्य योजना को लागू करने वाला भारत का पहला राज्य बन गया है
![Districts Map Maharashtra | India world map, Map, Geography map](https://i.pinimg.com/originals/aa/e3/45/aae34508a0a42128515535c5413a6c4d.jpg)

  ## ✅ भारत देश ने एशियाई विकास बैंक और एशियन इंफ्रास्ट्रक्चर इन्वेस्टमेंट बैंक से COVID-19 वैक्सीन खरीदने के लिए ऋण लिया है
![ADB, AIIB processing USD 2 billion loan for India to buy COVID-19 vaccines-  The New Indian Express](https://images.newindianexpress.com/uploads/user/imagelibrary/2021/6/8/w1200X800/COVID_Vaccine_PTI1212.jpg)

  ## ✅ भारतीय तटरक्षक जहाज 'सार्थक' को पोरबंदर गुजरात में रखा गया है
![भारतीय तटरक्षक जहाज &#39;सार्थक&#39; का उद्घाटन किया गया- GK in Hindi - सामान्य  ज्ञान एवं करेंट अफेयर्स](https://i0.wp.com/hindi.gktoday.in/wp-content/uploads/2021/10/indian-coast-guard-ship-sarthak.png?fit=1200%2C675&ssl=1)

  ## ✅ विश्व बैंक संगठन के 'द चेंजिंग वेल्थ ऑफ़ नेशन 2021' रिपोर्ट जारी की है
![World Bank agrees to give $100mn to SL for Covid battle](https://gumlet.assettype.com/freepressjournal/2021-09/034dcec4-fbc7-4dad-b703-7f45423f62c2/WORLD_BANK.jpg?format=webp&w=400&dpr=2.6)

  ## ✅ उत्तर प्रदेश राज्य सरकार ने राम कथा पार्क का नाम बदलकर 'क्वीन हीयो हवांग ओके' मेमोरियल पार्क रख दिया है
![UP District Map, UP Political Map, Uttar Pradesh Political Map](https://www.burningcompass.com/countries/india/maps/uttar-pradesh-district-map.jpg)

  ## ✅ गुजरात राज्य सरकार ने 'जो ग्रीन' मिशन लांच किया है
![7th Go Green day celebration | Jain (Deemed-to-be University)](https://www.jainuniversity.ac.in/uploads/blog/89e8476914fc5f6bd0ec23d86118c741.jpg)

  ## ✅ TVS Motor कंपनी को इंडिया ग्रीन एनर्जी पुरस्कार 2021 से सम्मानित किया गया है
![TVS Motor Company sales in January grew by 31 percent](https://newsroompost.com/wp-content/uploads/2019/04/TVS-Motors-2.jpg)

  ## ✅ विश्व मौसम विज्ञान संगठन ने 'एशिया में जलवायु की स्थिति' शीषर्क से रिपोर्ट जारी की है
![Asia - Climate | Britannica](https://cdn.britannica.com/52/196352-050-D95723FA/mix-Asia-climate-regions-climates-fringes-continent.jpg)

  ## ✅ राज्य ऊर्जा दक्षता सूचकांक में कर्णाटक राज्य शीर्ष पर रहा है
![कर्नाटक का नक्शा (मानचित्र) | Karnataka District Map in hindi](https://www.mapsofindia.com/ci-moi-images/hindimoi//2020/04/Karnataka-MapHindi.jpg)

  ## ✅ बोस्निया और हर्ज़ेग्नोविया देश को यूरोप का सबसे गरीब देश घोषित किया गया है
![Europe | History, Countries, Map, &amp; Facts | Britannica](https://cdn.britannica.com/67/367-050-0F839196/Europe.jpg)

  ## ✅ चेन्नई-मैसूरु शताब्दी एक्सप्रेस ट्रैन को IMS प्रमाणित ट्रैन घोषित किया गया है
![12007/Shatabdi Route Map from Chennai Central to Mysore](https://www.mapsofindia.com/railways/shatabdi-route-maps/chennai-central-to-mysore.gif)

  ## ✅ जितेंद्र सिंह ने उत्तराखंड के मसूरी शहर में 'सरदार पटेल लीडरशिप सेंटर' राष्ट्र को समर्पित किया है
![Sardar Vallabh Bhai Patel Biography, History and Facts](https://www.mapsofindia.com/ci-moi-images/who_is_who_new/2018/02/who-is-who-Sardar-Patel.jpg)

  ## ✅ आंध्र प्रदेश राज्य सरकार ने जाति आधारित जनगणना को मंजूरी दी है
![List of districts of Andhra Pradesh - Wikipedia](https://upload.wikimedia.org/wikipedia/commons/5/5c/Ap-districts.png)

  ## ✅ राजीव रंजन झा को पॉवर फाइनेंस कॉर्पोरेशन लिमिटेड का नया नियुक्त किया गया है
![Rajiv Ranjan Jha takes charge as Director (Projects) at Power Finance  Corporation - Global Green News](https://www.globalgreenews.com/wp-content/uploads/2021/10/PFC-2-1.jpg)

  ## ✅ माइक्रोसॉफ्ट कंपनी को दुनिया की सबसे मूल्यवान कंपनी घोषित किया गया है
![Microsoft Romania buys local ops of Finnish IT company Movial](https://cdn.aiidatapro.net/media/27/94/d2/t780x490/2794d2c77d792a07d6a57f8f5df00ea0.jpg)

  ## ✅ राष्ट्रीय बाघ संरक्षण प्राधिकरण ने छत्तीसगढ़ राज्य के गुरु घासीदास रष्ट्रीय उद्यान और तमोर पिंगला वन्यजीव अभ्यारण को बाघ रिज़र्व घोषित किया है
![Chhattisgarh Map | Mapa de europa, Plantilla de pasaporte, Mapas](https://i.pinimg.com/originals/02/e6/c5/02e6c5b13686be68aaf117d121a2b24a.jpg)

  ## ✅ पृथ्वी विज्ञान मंत्रालय ने चेन्नई शहर में भारत का पहला मानवयुक्त महासागर मिशन 'समुंद्रयान' लांच किया है
![Samudrayaan Project - India&#39;s Deep Ocean Mining for Rare Minerals - Utkal  Today](https://www.utkaltoday.com/wp-content/uploads/2021/04/EDhxkGoU4AAolmP-1024x572.jpg)

  ## ✅ भारत देश में 1 नवंबर से 3 नवंबर तक गंगा उत्सव मनाया गया
![DRP NB 1 Nov 2021: Why is Ganga not ENTHU about Ganga Utsav? – SANDRP](https://sandrp.files.wordpress.com/2021/11/3-gu.jpg?w=982)

  ## ✅ ऑक्सफॉर्ड इंग्लिश डिक्शनरी ने Vax शब्द को 'वर्ड ऑफ़ द ईयर 2021' घोषित किया है
![Oxford Word of the Year 2021 | Oxford Languages](https://languages.oup.com/wp-content/uploads/ol-woty2021-social-1-1200-x-628.jpg)

  ## ✅ ताइजुल इस्लाम ने विश्व किक बॉक्सिंग चैंपियनशिप में स्वर्ण पदक जीता है
![98 Indian Boxing Federation Photos and Premium High Res Pictures - Getty  Images](https://media.gettyimages.com/photos/ashish-chaudhary-a-medalist-in-the-asian-boxing-championships-held-at-picture-id1140287434?s=612x612)

  ## ✅ भारतीय रेलवे ने यात्रियों के लिए संचार में विश्वास बनाने के लिए TrueCaller कंपनी के साथ समझौता किया है
![Truecaller partners with Indian Railways | Zee Business](https://cdn.zeebiz.com/sites/default/files/styles/zeebiz_850x478/public/2021/10/28/164144-indian-railways-and-truecallerpti-and-truecallercom.jpg?itok=0PWibquY)

  ## ✅ राष्ट्रीय स्वच्छ गंगा मिशन को गिनीज बुक ऑफ़ वर्ल्ड रिकॉर्ड में शामिल किया गया है
![NMCG approves projects worth Rs 150 crore for cleaning river and its banks  hindi](https://img.jagranjosh.com/imported/images/E/Others/National_mission_for_clean_ganga.jpg)

  ## ✅ भारत के राष्ट्रपति रामनाथ कोविंद ने कुल 65 खिलाड़ियों को राष्ट्रीय खेल पुरस्कार 2021 से सम्मानित किया है
![Smriti, Kovind locked horns over National Film Awards - The Hindu Chronicle](https://www.thehinduchronicle.com/wp-content/uploads/2018/05/smriti-kovind.jpg)

  ## ✅ संयुक्त राष्ट्र के G-20 शिखर सम्मलेन कार्यक्रम में 'अंतराष्ट्रीय मीथेन उत्सर्जन वेधशाला' लांच किया है
![G-20 Summit adopts Rome Declaration - What is Rome declaration? - Read  facts for UPSC current affairs exam! - GKToday](https://www.gktoday.in/wp-content/uploads/2021/06/g20-countries.png)

  ## ✅ भारत के डल झील(श्रीनगर) में ओपन एयर फ्लोटिंग थ्रेटर की शुरुआत की गयी है
![Jammukashmirtourism | Kashmir Tourism has Started The Open Air Floating  Theatre In Dal Lake। कश्मीर डल झील। Lake Theatre - Dallake](https://headtopics.com/images/2021/10/30/amarujalanews/75971151041091038164-1454402780450332673.webp)

  ## ✅ संयुक्त राष्ट्र खाद्य और कृषि संगठन ने अंतराष्ट्रीय बीज सम्मलेन में भाग लेने के लिए तेलंगाना राज्य को आमंत्रित किया है
![Telangana Invited To Participate In International Seed Conference](https://competitiveindia.com/currentaffairs/wp-content/uploads/2021/11/Telangana-invited-to-participate-in-International-Seed-Conference.png)

  ## ✅ RBI ने बंधन बैंक को एजेंसी बैंक में शामिल किया है
![Bandhan Bank gets empanelled as agency bank of RBI | Business](https://devdiscourse.blob.core.windows.net/devnews/21_01_2021_15_50_21_088107.jpg)

  ## ✅ अमेरिका देश ने 5 से 11 वर्ष तक की आयु के बच्चो को कोरोना की फ़ाइज़र वैक्सीन को मंजूरी दी है
![Covid: Canada authorises Pfizer vaccine for children aged 12 to 15 - BBC  News](https://ichef.bbci.co.uk/news/976/cpsprodpb/1229D/production/_118379347_f959b3bf-db0b-4dc9-822e-64a7ea6170e0.jpg)

  ## ✅ अफ़ग़ानिस्तान देश ने विदेशी मुद्राओं के उपयोग पर प्रतिबंध लगाने की घोषणा की है
![3,326 Afghanistan Map Stock Photos, Pictures &amp; Royalty-Free Images - iStock](https://media.istockphoto.com/vectors/afghanistan-political-map-vector-id507090999?k=20&m=507090999&s=612x612&w=0&h=mlIBeQ1kBfeTUh0g7eulB8QCCvmYKO63y_4jMc9N7-U=)

  ## ✅ गृह मंत्री अमित शाह ने केंद्रीय सशस्त्र पुलिस बल के कर्मियों के लिए 'आयुष्मान भारत हेल्थ कार्ड' लांच किया है
![Ayushman CAPF](https://pmjay.gov.in/ayushmancapf/images/slider/slider-3.png)

  ## ✅ एक्सिस बैंक ने 'पावर सैल्यूट' देने के लिए भारतीय नौसेना के साथ समझौता किया है
![Axis Bank signed MoU with Indian Navy - BankExamsToday](https://blogger.googleusercontent.com/img/a/AVvXsEjSNnheAkciJiq91XmDo1fNF5Q206wnEHZVLlOZGCm_f-RBiJpiwrUuFfVDklVA19SRC9azt9XtfkMjY9v_75Kro1k8XNPO1DTHkBgDHX4SySEd1z9ZDaw-YTr67gbQxCrZKynvspnaqhJwnF2CkEhThJ3ZQV0QGNwDp1HSPTVrexMMNCnQT5-FbG1AZw=w1200-h630-p-k-no-nu)

  ## ✅ फेसबुक कंपनी ने अपना नाम बदलकर Meta(मेटा) रख लिया है
![Facebook Is Now Meta: Can Facebook&#39;s New Name Change Its Fate?](https://astrotalk.com/astrology-blog/wp-content/uploads/2021/11/metaaa.jpg)

  ## ✅ पवन कपूर को भारत की तरफ से रूस में राजदूत नियुक्त किया गया है
![Map of Russia Source: Political Map of Russia,... | Download Scientific  Diagram](https://www.researchgate.net/profile/Oleg-Gurshev-2/publication/333929783/figure/fig1/AS:772238714351619@1561127465841/Map-of-Russia-Source-Political-Map-of-Russia.jpg)

  ## ✅ संजय सुधीर को भारत की तरफ से UAE में राजदूत नियुक्त किया गया है
![Political Map of United Arab Emirates - Nations Online Project](https://www.nationsonline.org/maps/united_arab_emirates_map.jpg)

  ## ✅ ब्रिटेन देश ने कोरोना संक्रमण के इलाज के लिए Molnupiravir नामक एक वायरल गोली को मंजूरी दी है
![UK approves COVID antiviral pill: What we know about US approval,  eligibility and cost - CNET](https://www.cnet.com/a/img/kjNgCRR8af_9nPJN-gEMv0nmtIQ=/1200x675/2021/10/28/960e239f-d04c-4fd3-ae2f-30eb3bda3c3f/molnupiravir-composite-medication-covid-19-merck-2021-gettyimages-183369961.jpg)

  ## ✅ पंजाब राज्य ने सिंधु नदी डॉलफिन के जनगणना को मंजूरी दी है
![Punjab to begin Census of Indus River Dolphin - Read basic facts about Indus  River Dolphin here for current affairs exam! - GKToday](https://www.gktoday.in/wp-content/uploads/2021/07/dolphins.png)

  ## ✅ हाल ही में आयोजित विश्व बधिर(Deaf) जूडो चैंपियनशिप में भारत देश प्रथम स्थान पर आया है
![Birmingham Announced as Host of 2019 Commonwealth Judo Championships -  British Judo](https://www.britishjudo.org.uk/wp-content/uploads/2018/12/Commonwealth-Judo-scaled.jpg)

  ## ✅ अमित रंजन ने 'जॉन लैंग:वंडरर ऑफ़ हिंदुस्तान' नामक पुस्तक लिखी है
![A book on Rani Laxmibai&#39;s lawyer John Lang authored by Amit Ranjan](https://st.adda247.com/https://wpassets.adda247.com/wp-content/uploads/multisite/sites/5/2021/11/02080909/EU_3tplUwAABTPR-1.jpg)

  ## ✅ Yahoo कंपनी चीन देश से अपना कारोबार बंद करने की घोषणा की है
![Yahoo to rename rump company to Altaba after Verizon sale completes |  Digital | Campaign India](https://cdn.i.haymarketmedia.asia/?n=campaign-india%2Fcontent%2Fyahoo.jpeg&h=570&w=855&q=100&v=20170226&c=1)

  ## ✅ अरुण चावला को FICCI का महानिदेशक नियुक्त किया गया है
![FICCI Full Form - Tutorial And Example](https://www.tutorialandexample.com/wp-content/uploads/2021/06/FICCI-Full-Form.png)

  ## ✅ अमेरिका देश ने दिवाली त्यौहार को अपना राष्ट्रीय अवकाश घोषित किया है
![USA to Declare Diwali as National Holiday ? - YouTube](https://i.ytimg.com/vi/SWJhttQTs-w/maxresdefault.jpg)

  ## ✅ WHO ने भारत देश के Covaxin टिके को आपातकाल उपयोग की मंजूरी दी है
![COVAXIN Approval Today? Crucial W.H.O. Meet Today To Decide On Nod For  Bharat Biotech&#39;s COVAXIN - YouTube](https://i.ytimg.com/vi/6zDYR16wkjQ/maxresdefault.jpg)

  ## ✅ मणिपुर राज्य ने जनजातियों की संस्कृति की रक्षा के लिए कुल 29 संग्रहालयो का उदघाटन किया है
![File:Northeast India States.svg - Wikipedia](https://upload.wikimedia.org/wikipedia/en/thumb/9/9b/Northeast_India_States.svg/1200px-Northeast_India_States.svg.png)

  ## ✅ संजय भट्टाचार्य को स्विट्ज़रलैंड देश में भारत का नया राजदूत नियुक्त किया गया है
![Switzerland Maps | Maps of Switzerland](https://ontheworldmap.com/switzerland/map-of-switzerland-max.jpg)

  ## ✅ दक्षिण कोरिया देश के लेखक डेमन गलगुट को 'द प्रॉमिस' नामक उपन्यास के लिए बुकर पुरस्कार से सम्मानित किया गया है
![SA author Damon Galgut&#39;s &#39;The Promise&#39; short-listed for Booker Prize](http://www.thesouthafrican.com/wp-content/uploads/2021/09/Untitled-design-40.jpg)

  ## ✅ प्रधानमंत्री नरेंद्र मोदी ने केदारनाथ उत्तराखंड में आदि शंकराचार्य की प्रतिमा का अनावरण किया है
![PM Modi inaugurates Adi Shankaracharya statue, Rs 400-crore Kedarpuri  redevelopment projects at Kedarnath - The Financial Express](https://images.financialexpress.com/2021/11/page.jpg)

  ## ✅ चीन देश ने Guangmu(गुआंगमो) नामक पृथ्वी विज्ञान उपग्रह लांच किया है
![Current Affairs Today 2020 - AffairsCloud Today in English](https://affairscloud.com/assets/uploads/2021/11/China-launches-earth-science-satellite-Guangmu.jpg)

  ## ✅ चीन देश ने 3 नए रिमोट सेंसिंग उपग्रहों को सफलतापूर्वक लांच किया है
![China Launches New Remote Sensing Satellites - YouTube](https://i.ytimg.com/vi/HXYqEIINReI/maxresdefault.jpg)

  ## ✅ वेस्ट इंडीस के आलराउंडर खिलाडी ड्वेन ब्राबो ने अंतराष्ट्रीय क्रिकेट से सन्यास की घोषणा की है
![I feel like a kid again&#39; - Dwayne Bravo excited for his West Indies comeback](https://www.crictracker.com/wp-content/uploads/2019/09/CT_343380.jpg)

  ## ✅ फ्रांस देश ने 'वन ग्लोबल विएतनाम सम्मलेन' की मेजबानी की है
![France to host One Global Vietnam Summit - VietNamNet](https://vnn-imgs-f.vgcloud.vn/2021/11/04/10/france-to-host-one-global-vietnam-summit.jpg)

  ## ✅ हरयाणा राज्य के मुख्यमंत्री ने पूनम दयाल दहिया द्वारा लिखित पुस्तक 'मॉडर्न इंडिया' का विमोचन किया है
![McGraw Hill launches new book for UPSC aspirants: &#39;Modern India&#39; by Poonam  Dalal Dahiya – India Education | Latest Education News | Global Educational  News | Recent Educational News](https://indiaeducationdiary.in/wp-content/uploads/2021/10/Book-Launch.jpg)

  ## ✅ भारत और भूटान देश ने 7 व्यापार प्रवेश और निकास द्वार खोलने की घोषणा की है
![Challenges in relation b/w India and Bhutan - INSIGHTSIAS](https://www.insightsonindia.com/wp-content/uploads/2021/08/india-bhutan.png)

  ## ✅ उमुक्त चंद पहले भारतीय पुरुष क्रिकेटर बने है जिन्होंने 'बिग बैश लीग' के साथ समझौता किया है
![Unmukt Chand becomes first Indian in Big Bash League, signs for Melbourne  Renegades](https://swagcricket.com/wp-content/uploads/2021/11/Unmukt-Chand-Big-Bash-League-BBL-Melbourne-Renegades.jpg)

  ## ✅ ग्लास्गो में आयोजित COP-26 शिखर सम्मलेन के दौरान अंटार्कटिका में स्थित एक हिमनद का नाम 'ग्लास्गो(Glasgow) हिमनद' रखा गया है
![World Map Continent And Country Labels High-Res Vector Graphic - Getty  Images](https://media.gettyimages.com/illustrations/world-map-continent-and-country-labels-illustration-id102270269)

  ## ✅ UNESCO ने श्रीनगर शहर को भारत का पहला 'क्रिएटिव सिटी ऑफ़ आर्ट एंड क्राफ्ट' घोषित किया है
![Srinagar is only city from India to make it to UNESCO&#39;s creative cities  list; J&amp;K celebrates feat [details] - IBTimes India](https://data1.ibtimes.co.in/en/full/767042/srinagar-jk-unesco.png)

  ## ✅ सुधा मूर्ति ने 'द सेज विद टू हॉर्न्स' नामक पुस्तक लिखी है
![Sudha Murthy Pens New Book As Diwali Gift For Kids; &#39;Unique Stories, Far  From Exhaustive&#39;](https://img.republicworld.com/republic-prod/stories/promolarge/xhdpi/wmwkannialrdmdbr_1635871202.jpeg)

  ## ✅ हरयाणा राज्य सरकार ने प्राइवेट नौकरियों में स्थानीय लोगो को 75% आरक्षण देने का बिल पास किया है
![Haryana passed &quot;Haryana State Employment of Local Candidates Ordinance,  2020&quot; to reserve 75% private sector jobs for locals](https://affairscloud.com/assets/uploads/2020/07/Haryana-Govt-Clears-Draft-To-Reserve-75-Pvt-Sector-Jobs.jpg)

  ## ✅ सूरत शहर को सर्वश्रेष्ठ सार्वजनिक परिवहन पुरस्कार से सम्मानित किया गया है
![South Gujarat - Wikipedia](https://upload.wikimedia.org/wikipedia/commons/1/14/Map_GujDist_South.png)

  ## ✅ कोच्ची शहर को सबसे उपयुक्त परिवहन पुरस्कार से सम्मानित किया गया है
![Map of Kerala | India world map, India map, Travel india beautiful places](https://i.pinimg.com/originals/c0/41/58/c041582147cdc2ffe7796b0abbeb1726.gif)

  ## ✅ रामनाथ कोविंद ने कुल 141 लोगो को पदम् पुरस्कार से सम्मानित किया है
![Padma Awards 2021: Sushma Swaraj, PV Sindhu, Kangana Ranaut Among 119  Recipients](https://images.moneycontrol.com/static-mcnews/2021/01/Padma-Awards-2021_-770x433.jpg?impolicy=website&width=770&height=431)

  ## ✅ मॉरिशस देश के पूर्व राष्ट्रपति और प्रधानमंत्री Anerood Jugnauth को पदम् विभूषण पुरस्कार से सम्मानित किया गया है
![ANEROOD JUGNAUTH SWEEPS TO POWER | India Empire](https://www.indiaempire.com/images/20141201/cs1dec14ie.jpg)

  ## ✅ भारतीय वायुसेना ने DRDO के साथ मिलकर एक स्मार्ट एंटी एयरफील्ड हथियार लांच किया गया है
![SAAW: Smart Anti-Airfield Weapon of DRDO - YouTube](https://i.ytimg.com/vi/vqLCgLGWI3I/maxresdefault.jpg)

  ## ✅ आदित्य नारायण को 'नेल्सन मंडेला शांति पुरस्कार' से सम्मानित किया गया है
![Aditya Narayan: Biography, Songs, Marriage, Awards &amp; Achievements, Love  Affair](https://images.news18.com/ibnlive/uploads/2020/12/1609151757_aditya-narayan-1.jpg)

  ## ✅ सराह टेलर पुरुष क्रिकेट मैच की पहली महिला कोच बनी है
![Sarah Taylor becomes first woman coach in men&#39;s franchise cricket - The Week](https://img.theweek.in/content/dam/week/news/sports/images/2021/10/29/sarah-taylor-hundred-instagram.jpg)

  ## ✅ SBI बैंक ने पेंशनधारियो के लिए 'ऑनलाइन वीडियो जीवन प्रमाणपत्र' सेवा की शुरुआत की है
![SBI Video Life Certificate For Pensioners: How VLC process works - Step by  step guide | Zee Business](https://cdn.zeebiz.com/sites/default/files/styles/zeebiz_850x478/public/2021/11/02/164744-sbi1.jpg?itok=D7klFI3I)

  ## ✅ संकल्प गुप्ता भारत के सबसे तेज़/71वे ग्रैंडमास्टर बने है
![IM at the age of 15 - the story of Sankalp Gupta - YouTube](https://i.ytimg.com/vi/cJeGHKJ2gbA/maxresdefault.jpg)

  ## ✅ भारतीय वैज्ञानिक संस्थान ने कुल 17 भारतीय विज्ञानिको को स्वर्णजयंती फेलोशिप से सम्मानित किया है
![Swarnajayanti Fellowships are given to 17 Indian scientists for research  ideas and potential](https://pbs.twimg.com/media/FDvcFPdagAEHN2J?format=jpg&name=large)

  ## ✅ बंधन बैंक ने जुबीन गर्ग को असम राज्य में अपना ब्रांड एम्बेसडर बनाया है
![Current Affairs Today 2020 - AffairsCloud Today in English](https://affairscloud.com/assets/uploads/2021/11/Bandhan-Bank-ropes-in-Zubeen-Garg.jpg)

  ## ✅ अमेरिका देश ने समलैंगिक अधिकार कार्यकर्ता 'हार्वे मिल्क' के नाम पर एक जहाज़ लांच किया है
![Harvey Milk: US Navy launches ship named for gay rights leader - BBC News](https://ichef.bbci.co.uk/news/976/cpsprodpb/1786E/production/_121466369_gettyimages-1236396733.jpg)

  ## ✅ हाल ही में जारी महिला और बाल विकास मंत्रालय के आंकड़ों के अनुसार भारत में कुल 33 लाख कुपोषण बच्चो की संख्या निर्धारित की गयी है
![भारत में 33 लाख से अधिक बच्चे कुपोषण के शिकार, बिहार की स्थिति भी चिंताजनक](https://res.cloudinary.com/cloudinary014/image/upload/w_827,h_465,q_auto/v1636301709/news/cover/Nov2021/n4n688233e8-4b83-4fdb-ac50-463a809562cd.jpg)

  ## ✅ दिल्ली सरकार ने वायु प्रदुषण को कम करने के लिए पानी के छिड़काव के आपातकालीन प्रयोग को मंजूरी दी है
![Delhi: As pollution peaks, govt deploys 114 tankers to settle dust by  sprinkling water](https://images.livemint.com/img/2021/11/06/600x338/PTI11-06-2021-000041A-0_1636189427959_1636189438871.jpg)

  ## ✅ रोहित शर्मा को T20 सीरीज के लिए भारतीय क्रिकेट टीम का कप्तान बनाया गया है
![Rohit Sharma To Be Named India&#39;s ODI And T20I Captain After T20 World Cup  2021- Reports](https://cricketaddictor.com/wp-content/uploads/2021/10/Untitled-design-2.png)

  ## ✅ घेरलू धार्मिक पर्यटन को बढ़ावा देने के लिए IRCTC ने 'श्री राम यात्रा' रेल सेवा की शुरुआत की है
![IRCTC Dekho Apna Desh: First Ramayana circuit train departed from Delhi;  see pics here - The Financial Express](https://images.financialexpress.com/2021/11/main-1200.jpg)

  ## ✅ हाल ही में 'हसे कला(Hase Art)' बहुत ज्यादा खबरों में रहा, इसका संबंध कर्णाटक राज्य से है
![Culture, Custom and Traditional Lifestyle of Karnataka | Jugaadin News](https://i0.wp.com/news.jugaadin.com/wp-content/uploads/2020/08/culture-of-Karnataka.png?fit=1268%2C628&ssl=1)

  ## ✅ कर्णाटक राज्य सरकार ने 18000 महिलाओं को स्वयं सहायता समूहों के सदस्यों के रूप में प्रशिक्षित किया है
![India Travel | Pictures: Karnataka map](https://www.indiamike.com/files/images/30/28/11/karnataka-map.jpg)

  ## ✅ भारतीय नौसेना ने प्रोजेक्ट 75 के तहत चौथी स्कोर्पियन पनडुब्बी 'वेला' को नौसेना में शामिल किया है
![Submarine Vela of Project 75 launched in Mumbai](https://bsmedia.business-standard.com/_media/bs/vdo/video-gallery/general/submarine-vela-of-project-75-launched-in-mumbai/thumb/submarine-vela-of-project-75-launched-in-mumbai-15571371703524_83747.png)

  ## ✅ चीन देश ने श्रीलंका देश से 8 मिलियन डॉलर की मांग की है क्युकी इस देश ने अपने देश में चीन के उर्वरक के इस्तेमाल को मना कर दिया है
![China Demands 8 Million Dollars from Sri Lanka after Sri Lanka rejects  Chinese Fertilizer - YouTube](https://i.ytimg.com/vi/cdGmdvndSyA/maxresdefault.jpg)

  ## ✅ पकिस्तान के पूर्व अधिकारी लेफ्टिनेंट कर्नल काजी सज्जाद अली ज़ाहिर को पदम् श्री पुरस्कार से सम्मानित किया गया है
![Tale Of Ex-Pak Soldier, Padma Shri Lt Col Quazi, Who Crossed Over To India  To Save Bangladesh](https://im.indiatimes.in/content/2021/Nov/Lt-Col-Quazi-Padma-Shri_618cb72b7269e.jpg)

  ## ✅ दिल्ली सरकार ने वायु प्रदुषण की घटनाओं को रोकने के लिए 'ओपन बर्निंग अभियान' की शुरुआत की है
![Delhi govt launches &#39;Anti Open Burning Campaign&#39; - video Dailymotion](https://s1.dmcdn.net/v/TNptz1XYfllhgbbqs/x720)

  ## ✅ मोरिनारी वेतनबे को अंतराष्ट्रीय जिम्नास्ट फेडरेशन का अध्यक्ष नियुक्त किया गया है
![International Gymnastics Federation – FIG Vector Logo - (.SVG + .PNG) -  VectorLogoSeek.Com](https://vectorlogoseek.com/wp-content/uploads/2020/05/international-gymnastics-federation-fig-vector-logo.png)

  ## ✅ अमेरिका देश अंतराष्ट्रीय सौर संगठन में शामिल होने वाला 101वा देश बन गया है
![USA Becomes the 101st Member Country of the ISA at COP26; ISA Established  Investment Advisory Committee](https://affairscloud.com/assets/uploads/2021/11/101st-member-country-of-the-International-Solar-Alliance.jpg)

  ## ✅ अतुल करवाल NDRF के नए प्रमुख बने है
![Cyclone Amphan and Covid 19: NDRF gets ready to tackle dual calamities |  India News – India TV](https://resize.indiatvnews.com/en/resize/newbucket/715_-/2020/05/ndrf-chief-pib-final-1589889559.jpg)

  ## ✅ शील वर्धन CISF के नए प्रमुख बने है
![Outgoing Maharashtra DGP Subodh K Jaiswal takes over as new CISF chief- The  New Indian Express](https://images.newindianexpress.com/uploads/user/imagelibrary/2021/1/8/w900X450/ErNij-pUUAcsO6B.jpg?w=400&dpr=2.6)

  ## ✅ केंद्र सरकार ने 15 नवंबर को बिरसा मुंडा की जयंती को 'आदिवासी गौरव दिवस' के रूप में मानाने की घोषणा की है
![Birsa Munda-The Freedom Fighter Of India - DIADEMY](https://diademy.com/wp-content/uploads/2021/03/Birsa-Munda.png)

  ## ✅ ओडिशा राज्य सरकार ने स्मार्ट हेल्थ कार्ड वितरण कार्यक्रम की शुरुआत की है
![Odisha&#39;s &#39;Smart Health Card&#39; Scheme : Latest update | Drishti IAS English -  YouTube](https://i.ytimg.com/vi/A6jC94QlYbk/maxresdefault.jpg)

  ## ✅ फाल्गुनी नायर भारत की सबसे आमिर सेल्फ मेड बिलियनर बनी है
![Nykaa Founder Falguni Nayar becomes India&#39;s wealthiest self-made female  billionaire](https://img.republicworld.com/republic-prod/stories/promolarge/xhdpi/bvcpibqdc88jwlme_1636533234.jpeg)

  ## ✅ हॉकी इंडिया ने ओडिशा राज्य में होने वाले हॉकी पुरुष जूनियर विश्व कप 2021 के लिए विवेक सागर प्रसाद को कप्तान चुना है
![I&#39;m overwhelmed: Vivek Sagar Prasad on being nominated for same FIH honour  again | Hockey - Hindustan Times](https://images.hindustantimes.com/img/2021/08/24/550x309/PTI07_29_2021_000061B_1629812636788_1629812660291.jpg)

  ## ✅ उत्तर प्रदेश राज्य 5 जिलों में मेट्रो रेल की सुविधा देने वाला भारत का पहला राज्य बन गया है
![cm yogi adityanath flags off kanpur metro trial run see photos upat - Kanpur  में दौड़ी मेट्रो, सीएम योगी आदित्यनाथ ने ट्रायल रन को दिखाई हरी झंडी, देखिए  तस्वीरें – News18 हिंदी](https://images.news18.com/ibnkhabar/uploads/2021/11/kanpur-metro4.jpg)

  ## ✅ हाल ही में जारी एक घोषणा के अनुसार Egypt(मिस्र) देश 2022 में होने वाले COP-27 संयुक्त राष्ट्र जलवायु परिवर्तन सम्मलेन की मेजबानी करेगा
![Map of egypt. Map of egypt with national borders, most important cities,  rivers and lakes. | CanStock](https://cdn.w600.comps.canstockphoto.com/map-of-egypt-eps-vector_csp14636045.jpg)

  ## ✅ इंस्टाग्राम सोशल मीडिया प्लेटफार्म ने 'सेफ स्त्री(Safe Stree) और माइ कानून(My Kanoon)' नाम से 2 साइबर सुरक्षा अभियान की शुरुआत की है
![Ways To Use Instagram For Increasing Revenue Of The Business - Blog Vertex](https://www.blogvertex.com/wp-content/uploads/2020/04/instagram-image.jpg)

  ## ✅ प्रधानमंत्री नरेंद्र मोदी ने मध्य प्रदेश के भोपाल शहर में देश के पहले विश्व स्तरीय रेलवे स्टेशन 'हबीबगंज रेलवे स्टेशन' का उदघाटन किया है, इसका मॉडल Heidelberg रेलवे स्टेशन जर्मनी के तर्ज पर बनाया गया है
![Habibganj Railway Station – First World Class Railway Station in India.  Latest Updates in Hindi - YouTube](https://i.ytimg.com/vi/0TmGL6H3jxA/maxresdefault.jpg)

  ## ✅ 'शिरडी हवाई अड्डा' महाराष्ट्र को एक प्रमुख हवाई अड्डा घोषित किया गया है
![Tourist Map of Shirdi, City Map of Shirdi, Travel Map of Shirdi](http://www.touristplacesinindia.com/shirdi/images/tourist-map-of-maharashtra.gif)

  ## ✅ हाल ही में जारी संयुक्त राष्ट्र बाल कोष(UNICEF) की एक रिपोर्ट के अनुसार विश्व में कुल 240 मिलियन बच्चे विकलांग(दिव्यांग) है
![No more children with disabilities out of school | HI](https://hi.org/sn_uploads/federation/news/024--.jpg)

  ## ✅ उत्तर प्रदेश के प्रयागराज शहर में 3 दिवसीय 'राष्ट्रीय स्क्वैश प्रतियोगिता' की शुरुआत की गयी है
![Squash and Diabetes](https://res.cloudinary.com/grohealth/image/upload/$wpsize_!_cld_full!,w_2121,h_1414,c_scale/v1588105613/iStock-629593692.jpg)

  ## ✅ देवासयम पिल्लै भारतीय ईसाई को पोप फ्रांसिस द्वारा संत की मादन उपाधि से सम्मानित किया गया है
![Devasahayam Mount / maniyadichan paara / kattadi mala / devasahayam pillai  history in malayalam - YouTube](https://i.ytimg.com/vi/o_YH9jlM3m4/maxresdefault.jpg)

  ## ✅ लावा(Lava) कंपनी 'अग्नि' ब्रांड के नाम से 5G स्मार्टफोन लांच करने वाली भारत की पहली भारतीय ब्रांड बन गई है
![Lava AGNI 5 Smartphone Launch | Lava Agni 5G Smartphone | Lava Budget 5G  Smartphone 2021 - YouTube](https://i.ytimg.com/vi/zm5SPagCv5Q/maxresdefault.jpg)

  ## ✅ नागालैंड राज्य में किसान भवन और मधुमक्खी पालन सम्मलेन का उदघाटन किया गया है
![File:Northeast India States.svg - Wikipedia](https://upload.wikimedia.org/wikipedia/en/thumb/9/9b/Northeast_India_States.svg/1200px-Northeast_India_States.svg.png)

  ## ✅ सलमान खुर्शीद ने 'सनराइज ओवर अयोध्या' नामक पुस्तक लिखा है
![Plea filed in Delhi HC seeking ban on Salman Khurshid&#39;s book &#39;Sunrise Over  Ayodhya&#39;](https://img.republicworld.com/republic-prod/stories/promolarge/xhdpi/f6ypiebe9pw5zks4_1636812273.jpeg)

  ## ✅ सत्य नारायण प्रधान को नार्कोटिक्स कंट्रोल ब्यूरो का महानिदेशक नियुक्त किया गया है
![Getting battle-ready for coronavirus emergency: NDRF chief SN Pradhan- The  New Indian Express](https://images.newindianexpress.com/uploads/user/imagelibrary/2020/3/27/w900X450/Focus_onEPS.jpg?w=400&dpr=2.6)

  ## ✅ पी.सी मोदी को राज्य सभा का सेक्रेटरी जनरल नियुक्त किया गया है
![PC Mody replaces Ramacharyulu as Rajya Sabha secretary general | Latest  News India - Hindustan Times](https://images.hindustantimes.com/img/2021/11/12/550x309/c0794ef2-4380-11ec-bd68-b2b71042cab0_1636742204246_1636748128511.jpg)

  ## ✅ 100 वर्ष पहले भारत से चोरी हुई अन्ननपूर्णा की मूर्ति को कनाडा देश से भारत वापस लाया गया है और इसे कशी विश्वनाथ मंदिर वाराणसी में स्थापित किया गया है
![Annapurna Idol Stolen 100 Years Ago Returns To India; To Be Installed At  Kashi Temple - YouTube](https://i.ytimg.com/vi/P5PWbqgIfhk/maxresdefault.jpg)

  ## ✅ पंजाब राज्य सरकार ने राज्य के सभी स्कूलों में सभी छात्रों के लिए पंजाबी भाषा अनिवार्य कर दिया है
![File:Punjab district map.png - Wikipedia](https://upload.wikimedia.org/wikipedia/commons/thumb/f/fa/Punjab_district_map.png/1200px-Punjab_district_map.png)

  ## ✅ 2022 में आयोजित राष्ट्रमंडल खेलो में पहली बार T-20 महिला क्रिकेट को शामिल किया गया है, पहला मैच भारत और ऑस्ट्रेलिया के बीच खेला जाएगा
![India Vs Australia To Open Women&#39;s Cricket Competition At 2022 Commonwealth  Games](https://img.republicworld.com/republic-prod/stories/promolarge/xhdpi/8tzzzo7ayzelf3wh_1636721768.jpeg)

  ## ✅ 'ऐतिहासिक संकल्प' बहुत चर्चा में रहा, इसका संबंध चीन देश से है
![Political Map of China - Nations Online Project](https://www.nationsonline.org/maps/China-Political-Map.jpg)

  ## ✅ मणिपुर राज्य में असम राइफल पर 'पीपल लिबरेशन आर्मी' के द्वारा आतंकी हमला किया गया
![Manipur में उग्रवादियों ने Assam Rifles के Soldiers पर किया हमला, 3 जवान  शहीद | वनइंडिया हिंदी - YouTube](https://i.ytimg.com/vi/KERzm7Yz88w/maxresdefault.jpg)

  ## ✅ प्रधानमंत्री नरेंद्र मोदी ने रांची शहर में देश के पहले आदिवासी संग्रहालय का उदघाटन किया है
![प्रधानमंत्री ने बिरसा मुंडा के सम्मान में रांची में संग्रहालय का उद्घाटन  किया - Uday Bulletin](https://i1.wp.com/udaybulletin.com/wp-content/uploads/2021/11/National-08-1.jpg?fit=770%2C440&ssl=1)

  ## ✅ ऑस्ट्रेलिया देश ने नूज़ीलैण्ड देश की 8 विकेट से हराकर ICC पुरुष T-20 विश्व कप को जीता है
![Australia beat New Zealand to win 2021 T20 World Cup final | Cricket News |  Al Jazeera](https://www.aljazeera.com/wp-content/uploads/2021/11/000_9RN2KG.jpg?resize=770%2C513)

  ## ✅ UAE और ओमान देश में ICC पुरुष T-20 विश्व कप आयोजित कराए गए थे
![United Arab Emirates | Geography and Maps | Goway](https://www.goway.com/media/cache/bb/b7/bbb70d150aa7c9bfa3c1687c319542e0.jpg)

  ## ✅ हबीबगंज रेलवे स्टेशन का नाम बदलकर 'रानी कमलापति रेलवे स्टेशन' रख दिया गया है
![What is the new name of Habibganj railway station? Gond queen Rani Kamlapati  | India News – India TV](https://resize.indiatvnews.com/en/resize/newbucket/1200_-/2021/11/habibganjrailwaystation-1636804176.jpg)

  ## ✅ अंडमान निकोबार में स्थित माउंट हेरिएट का नाम बदलकर माउंट मणिपुर रख दिया गया है
![GK Questions and Answers on the Ecological Profile of Andaman and Nicobar  Islands](https://img.jagranjosh.com/imported/images/E/Articles/Andaman-Nicobar-Ecological-Profile.jpg)

  ## ✅ बिमल पटेल को अंतराष्ट्रीय विधि आयोग के लिए निर्वाचित किया गया है
![Professor Bimal Patel elected to International Law Commission for 5-year  term - The Hindu](https://www.thehindu.com/news/national/488i7v/article37466505.ece/ALTERNATES/LANDSCAPE_615/bimalpatel)

  ## ✅ रूस देश ने भारत को 'S-400 एयर डिफेंस सिस्टम' की सप्लाई शुरू कर दी है
![India starts receiving S 400 missile systems from Russia | India News –  India TV](https://resize.indiatvnews.com/en/resize/newbucket/1200_-/2021/11/s-400-missile-defence-system-1636891810.jpg)

  ## ✅ अरुणाचल प्रदेश राज्य ने 'केसर ए हिंद' नामक तितली को राज्य तितली घोषित किया है
![Kaiser-i-Hind: Arunachal&#39;s State butterfly - Read current affairs facts  about Kaiser-i-Hind here for UPSC exam! - GKToday](https://www.gktoday.in/wp-content/uploads/2021/11/kaiser-i-hind.png)

  ## ✅ वायु गुडवत्ता ट्रैकिंग सेवा के एक रिपोर्ट के अनुसार भारत के कुल 3 शहर (1st)दिल्ली,(4th)कोलकाता और (6th)मुंबई विश्व के 10 सबसे प्रदूषित शहरो में शामिल हुए है
![Air pollution may be a leading global cause of death](https://i0.wp.com/post.medicalnewstoday.com/wp-content/uploads/sites/3/2020/03/iStock-157313230-1024x671.jpg?w=1155&h=3521)

  ## ✅ वी.वी.एस लक्ष्मण को राष्ट्रीय क्रिकेट अकादमी का नया प्रमुख घोषित किया गया है
![VVS Laxman recalls &#39;fun times&#39; with former teammates with adorable  throwback picture | Cricket News | Zee News](https://english.cdn.zeenews.com/sites/default/files/styles/zm_700x400/public/2020/09/14/885620-vvslaxmanfillee.jpg)

  ## ✅ केरल राज्य के वायनाड जिले में नोरो वायरस का पहला मामला दर्ज किया गया है
![Winter vomiting bug hits Kerala; govt asks people to be vigilant of  Norovirus [how to stay safe] - IBTimes India](https://data1.ibtimes.co.in/en/full/767194/kerala-sounds-alarm-norovirus.jpg?w=843&h=470&l=50&t=40)

  ## ✅ प्रधानमंत्री नरेंद्र मोदी ने उत्तर प्रदेश राज्य में पूर्वांचल एक्सप्रेसवे का उदघाटन किया है
![पूर्वांचल एक्सप्रेस-वे की पूरी जानकारी || Purvanchal Expressway Route &amp;  Details - Quick News - YouTube](https://i.ytimg.com/vi/60REY3h3cgw/maxresdefault.jpg)

  ## ✅ भारत और बांग्लादेश देश की सेना ने संयुक्त साइकिल रैली का आयोजन किया है
![Epaar Bangla, opaar Bangla | Dhaka Tribune](https://media-eng.dhakatribune.com/uploads/2019/06/partha-bigstock-1560767749247.jpg)

  ## ✅ हाल ही में आयोजित COP-26 सम्मलेन में ग्लोबल वार्मिंग को 1.5 डिग्री तक सिमित रखने का लक्ष्य रखा है
![COP26 in Glasgow | Germanwatch e.V.](https://germanwatch.org/sites/default/files/styles/header_image/public/cop26-titelbild.jpg?itok=X7IVVfNl)

  ## ✅ ICC T-20 विश्व कप 2021 में डेविड वार्नर को 'प्लेयर ऑफ़ द सीरीज' घोषित किया गया है
![David Warner (@davidwarner31) / Twitter](https://pbs.twimg.com/media/FEQUEHNVgAQFUMd.jpg)

  ## ✅ थंजावुर तमिलनाडु में भारत का पहला खाद्य संग्रहालय खोला गया है
![Current Affairs 17 November 2021](https://affairscloud.com/assets/uploads/2021/11/Indias-first-Food-Museum-opens-in-Thanjavur.jpg)

  ## ✅ केंद्र सरकार ने रक्षा सचिव,गृह सचिव,RAW के सचिव और IB के सचिव का कार्यकाल 2 वर्षो के लिए बढ़ा दिया है
![For central government employees, flexi attendance option extended](https://images.livemint.com/img/2021/06/02/1600x900/Jitendra_Singh_Twitter_1622606554827_1622606567630.jpg)

  ## ✅ सौरभ कृपाल दिल्ली उच्च न्यायालय में भारत के पहले समलैंगिक(Gay) जज बने है
![SC ruled homosexuality is not an offence. So why is it penalising Saurabh  Kirpal for being gay?](https://s01.sgp1.cdn.digitaloceanspaces.com/article/157125-snvzaqvudz-1617527079.jpg)

  ## ✅ 246 खिलाड़ियों और कोचों को स्पोर्ट्स अथॉरिटी ऑफ़ इंडिया पुरस्कार से सम्मानित किया गया है
![162 athletes, 84 coaches conferred with first-ever SAI Institutional Awards  - Hindustan Times](https://images.hindustantimes.com/img/2021/11/17/1600x900/_67675e30-ec74-11ea-83c1-09a59be16170_1637153361980.jpg)

  ## ✅ सबसे आमिर देशो की सूचि में चीन देश शीर्ष पर रहा है
![World&#39;s Richest Countries in the Future (2020-2100) | pardee.edu - YouTube](https://i.ytimg.com/vi/0YCPh2fv0HQ/maxresdefault.jpg)

  ## ✅ सौरभ गांगुली को ICC पुरुष क्रिकेट समिति का नया अध्यक्ष नियुक्त किया गया है
![The Sourav Ganguly reign begins: Faced with tough challenges, Dada makes  the right moves on day](https://s01.sgp1.cdn.digitaloceanspaces.com/article/129634-ujkscbtmci-1571835252.jpg)

  ## ✅ अमेरिका देश ने आदिवासी राष्ट्रों के शिखर सम्मलेन की मेजबानी की है
![USA Map | Maps of United States of America With States, State Capitals And  Cities (USA, U.S.)](https://ontheworldmap.com/usa/us-map-2200.jpg)

  ## ✅ प्रधानमंत्री नरेंद्र मोदी को NCC पूर्व छात्र संघ के पहले सदस्य के रूप में नामांकित किया गया है
![I apologise&#39;: How PM Modi rebranded himself with two simple words - News  Analysis News](https://akm-img-a-in.tosshub.com/indiatoday/images/story/202111/PTI11_19_2021_000019A_1200x768.jpeg?oM.ixiALlt.XAo5EJSJ80E0uXH5ROt11&size=770:433)

  ## ✅ पाकिस्तान देश के सांसदों ने नए बलात्कार विरोधी कानून को मंजूरी दी है
![Pakistan Map and Satellite Image](https://geology.com/world/pakistan-province-map.gif)

  ## ✅ स्मृति ईरानी ने 'लाल सलाम' नामक पुस्तक लिखी है, यह पुस्तक अप्रैल 2010 में दाँतेवाडा में CRPF के 76 जवानो की दुखद हत्याओं पर आधारित है
![Smriti Irani authored her first Novel &#39;Lal Salaam: A Novel&#39;](https://st.adda247.com/https://wpassets.adda247.com/wp-content/uploads/multisite/sites/5/2021/11/20074731/q7jucnbvmx8v06xx_1637232042.jpeg)

  ## ✅ नॉएडा शहर में उत्तर प्रदेश के पहले वायु प्रदुषण रोधी टावर का उदघाटन किया गया है
![BHEL&#39;s Air Pollution Control Tower becomes operational in Noida](https://www.psuconnect.in/sdsdsd/BHEL_anti_smog_tower.jpg)

  ## ✅ पाकिस्तान देश 'ICC चैंपियन ट्रॉफी 2025' की मेजबानी करेगा
![Pakistan to host ICC Champions Trophy 2025 - BOL News](https://bolnews.s3.amazonaws.com/wp-content/uploads/2021/11/timthumb-1.jpg)

  ## ✅ संयुक्त राष्ट्र के महासचिव 'एंटोनिओ गुटेरेस' ने शोम्बी शार्प को संयुक्त राष्ट्र के रेजिडेंट कोऑर्डिनेटर के रूप में नियुक्त किया है
![sharp: UN Secretary General Guterres appoints Shombi Sharp as UN Resident  Coordinator in India | India News - HindiNews](https://cofanews.in/wp-content/uploads/2021/11/sharp-UN-Secretary-General-Guterres-appoints-Shombi-Sharp-as-UN.jpg)

  ## ✅ महाराष्ट्र राज्य सरकार ने सलमान खान को 'कोविड वैक्सीन एम्बेसडर' नियुक्त किया है
![Salman Khan appointed as Pepsi&#39;s new brand ambassador- The New Indian  Express](https://images.newindianexpress.com/uploads/user/imagelibrary/2019/10/2/w600X390/Salman_Khan_PTI.jpeg)

  ## ✅ दिल्ली में स्थित रक्षा अध्ययन और विश्लेषण संस्थान का नाम मनोहर पारेकर के नाम पर रखने की घोषणा की गयी है
![Manohar Parrikar Dies, Manohar Parrikar Health: Chief Minister Manohar  Parrikar Wanted To Serve Goa Till Last Breath](https://c.ndtvimg.com/2019-03/mqb7g8i_manohar-parrikar_625x300_17_March_19.jpg)

  ## ✅ तेलंगाना के पोचमपल्ली गांव को दुनिया का सर्वश्रेष्ठ पर्यटन गांव चुना गया है
![Telangana State Map | Map, Geography map, Telangana](https://i.pinimg.com/originals/de/7f/30/de7f300c146b245f37091168c3b87cc1.jpg)

  ## ✅ हाल ही में जारी वैशविक रिश्वत सूचकांक(Golbal Bribery Risk Index) 2021 में भारत का रैंक 82वा रहा है
![2020 - CPI - Transparency.org](https://images.transparencycdn.org/images/_1200x630_crop_center-center_82_none/CPI2020_CPI-Meta-1.jpg?mtime=1611767727)

  ## ✅ भारत सरकार और SBI बैंक ने अगरतला के विकास के लिए 61 मिलियन डॉलर के ऋण को मंजूरी दी है
![Northeast India Map Stock Vector (Royalty Free) 211891252](https://image.shutterstock.com/image-vector/northeast-india-map-600w-211891252.jpg)

  ## ✅ पश्चिम बंगाल राज्य सरकार ने घर में राशन उपलब्ध कराने के लिए 'दुआरे राशन योजना' की शुरुआत की है
![WB Duare Ration Scheme 2021 | Ration Doorstep Delivery Scheme by West  Bengal Govt](https://sarkariyojana.com/wp-content/uploads/2021/11/wb-duare-ration-scheme.jpg)

  ## ✅ एम मुकुन्दं को 'Delhi:A Soliloquy' पुस्तक के लिए JCB पुरस्कार 2021 से सम्मानित किया गया है
![Translation of M Mukundan&#39;s Delhi: A Soliloquy, depicts the city&#39;s squalor  as observed by its Malayali diaspora-Art-and-culture News , Firstpost](http://www.firstpost.com/wp-content/uploads/2020/09/DelhiSoliloquy_640.jpg)

  ## ✅ रानीखेत उत्तराखंड में भारत के पहले घास संरक्षण केंद्र का उदघाटन किया गया है
![India&#39;s 1st grass conservatory inaugurated in Ranikhet, Uttarakhand](https://st.adda247.com/https://wpassets.adda247.com/wp-content/uploads/multisite/sites/5/2021/11/17080003/jhsbd-e1636888522199.jpg)

  ## ✅ देश में फुटबॉल को बढ़ावा देने के लिए SBI बैंक ने 'जमशेदपुर फुटबॉल क्लब' के साथ समझौता किया है
![SBI Customer Alert: Mobile App YONO, Net Banking, UPI Services to Remain  Down Today](https://static.india.com/wp-content/uploads/2021/07/SBI-Recruitment-2021-2-1.jpg)

  ## ✅ देबआशीष मुख़र्जी ने 'द डिसरप्टर' नामक पुस्तक लिखी है
![Be the disrupter, not the disrupted - YouTube](https://i.ytimg.com/vi/o9q7zIpPsD8/maxresdefault.jpg)

  ## ✅ स्वच्छ सर्वेक्षण 2021 की रिपोर्ट के अनुसार इंदौर शहर लगातार पांचवी बार सबसे स्वच्छ शहर घोषित किया गया है,द्वितीय स्थान पर सूरत और तृतीय स्थान पर विजयवाड़ा है
![स्वच्छ सर्वेक्षण 2021 | MyGov.in Swachh Survekshan लाभ व सभी जानकारी](https://indiascheme.com/wp-content/uploads/2020/07/1-21-1024x552.jpg)

  ## ✅ 'IPF स्मार्ट पुलिसिंग इंडेक्स 2021' में आंध्र प्रदेश राज्य शीर्ष स्थान पर रहा है
![IPF Survey on SMART Policing 2021: Andhra Pradesh, Telangana, Tops; Bihar,  UP Lowest](https://affairscloud.com/assets/uploads/2021/11/Telangana-Andhra-Pradesh-score-high-on-SMART-police.jpg)

  ## ✅ प्रकाश पादुकोण 'BWF लाइफ टाइम अचीवमेंट पुरस्कार 2021' पाने वाले पहले भारतीय बैडमिंटन खिलाडी बने है
![Lifetime Achievement Award: Prakash Padukone to get prestigious Award](https://cdn.insidesport.co/wp-content/uploads/2021/11/18181533/WhatsApp-Image-2021-11-18-at-6.14.58-PM.jpeg)

  ## ✅ हेमा मालिनी और प्रसून जोशी को 'इंडियन फिल्म पर्सनालिटी ऑफ़ द ईयर' पुरस्कार से सम्मानित किया गया है
![Hema Malini, Prasoon Joshi to be awarded Indian Personality of the Year at  IFFI in Goa - Movies News](https://akm-img-a-in.tosshub.com/indiatoday/images/story/202111/hema.png?oLhx_Y34GBmOV1UtfT.Cbuo4sM3Og_kK&size=770:433)

  ## ✅ राष्ट्रपति रामनाथ कोविंद ने हरयाणा राज्य में आदर्श गांव 'सुई' का उदघाटन किया है
  ![17 नवंबर को हरियाणा के इस गांव आएंगे राष्ट्रपति, शहर से भी शानदार है इसकी  खूबी](https://etvbharatimages.akamaized.net/etvbharat/prod-images/768-512-13562156-thumbnail-3x2-kgd.jpg)

  ## ✅ गुजरात राज्य की पूजा बदलानी UAE में आयोजित 'मिसिज इंडिया वर्ल्ड वाइड क्वीन' की विजेता बनी है
![Pooja Badlani crowned Mrs India Worldwide Queen - Element Air, at the grand  finale in UAE](https://aniportalimages.s3.amazonaws.com/media/details/unnamed2021111910130120211119103504.jpg)

  ## ✅ BRO ने लद्दाख में स्थित उमलीग ला दर्रे में दुनिया का सबसे ऊँचा सड़क बनाकर गिनीज वर्ल्ड रिकॉर्ड में अपना नाम दर्ज कराया है
![How to Reach Khardung La Pass, The Highest Motorable Road in The World](https://www.india.com/wp-content/uploads/2018/08/Prayer-flags-at-Khardung-La.jpg)

  ## ✅ 15 नवंबर से 21 नवंबर तक 'राष्ट्रीय नवजात शिशु सप्ताह 2021' आयोजित किया गया है
![newborn baby care week: नवजात शिशु देखभाल सप्ताह; प्रसव से जुड़ी महत्वपूर्ण  जानकारी के लिए जरूरी पढ़ें - Desh ki Aawaz](https://deshkiaawaz.in/wp-content/uploads/2021/11/navjaat-shishu.jpg)

  ## ✅ बेरिल थंगा को '12वे मणिपुर राज्य पुरस्कार' से सम्मानित किया गया है
![Free Manipur Map, India | Map of Manipur State, India open source |  Mapsopensource.com](http://www.mapsopensource.com/images/manipur-map.gif)

  ## ✅ पुनीत राजकुमार को मरणोपरांत कर्णाटक रत्न पुरस्कार से सम्मानित किया गया है
![Puneeth Rajkumar Funeral LIVE Updates: Kannada Powerstar Actor Suffered  Cardiac Arrest; Fans Can Pay Last Respects at Bengaluru&#39;s Kanteerava  Stadium.](https://images.indianexpress.com/2021/10/1-403.jpg)

  ## ✅ प्रधानमंत्री नरेंद्र मोदी ने झाँसी शहर में अल्ट्रा मेगा सोलर पार्क का उदघाटन किया है
![PM Shri Narendra Modi dedicates Rewa Ultra Mega Solar Power project to the  Nation](https://cdn.narendramodi.in/cmsuploads/0.69527100_1594367495_1155-1-prime-minister-narendra-modi-inaugurates-asia-s-largest-solar-power-plant-in-madhya-pradesh.jpg)

  ## ✅ स्टेल्थ गाइडेड मिसाइल डिस्ट्रॉयर 'INS विशाखापट्नम' भारतीय नौसेना में शामिल हुआ है, इसका निर्माण Mazagon Dock Ship Builders(Mumbai) के द्वारा किया गया है
![All About the INS Visakhapatnam, Navy&#39;s Most Powerful Destroyer](https://i.ndtvimg.com/i/2015-04/destroyer-visakhapatnam_650x400_81429249536.jpg)

  ## ✅ रूस देश ने जिरकॉन(Zircon) नामक हाइपरसोनिक क्रुज़ मिसाइल का सफल परिक्षण किया है
![How Powerful Zircon missile - YouTube](https://i.ytimg.com/vi/F7SKc7mC3cs/maxresdefault.jpg)

  ## ✅ जेसन मोट ने 72वा राष्ट्रीय पुस्तक पुरस्कार 2021 जीता है
![Jason Mott won 2021 National Book Award for fiction](https://st.adda247.com/https://wpassets.adda247.com/wp-content/uploads/multisite/sites/5/2021/11/22084046/hell-of-a-book-jason-mott.jpg)

  ## ✅ 2022 आईपीएल का आयोजन भारत देश में किया जाएगा
![BCCI सचिव जय शाह ने बताया कब और कहां खेला जाएगा IPL 2022](https://trendbihar.com/wp-content/uploads/2021/11/ipl-2022-2-new-teams-auction-date-36-72.jpg)

  ## ✅ आंध्र प्रदेश राज्य भारत का सर्वेश्रेष्ठ समुंद्री राज्य बना है
![List of districts of Andhra Pradesh - Wikipedia](https://upload.wikimedia.org/wikipedia/commons/5/5c/Ap-districts.png)

  ## ✅ IIT मद्रास के शोधकर्ताओं ने सेप्टिक टैंक की सफाई के लिए HomoSEP नामक रोबोट को विकसित किया है
![Can this portable robot end septic tank deaths once it is deployed? - The  Hindu](https://www.thehindu.com/sci-tech/science/9qc78/article37598760.ece/ALTERNATES/LANDSCAPE_1200/21TH-SCIROBOTjpg)

  ## ✅ शशि थरूर ने 'Pride,Prejudice And Punditry' नामक पुस्तक लिखी है
![Vikas Dave&#39;s tweet - &quot;I am attending Pride, Prejudice &amp; Punditry: In  Conversation with Dr. Shashi Tharoor on Luma. Join me! via @LumaHQ&quot; -  Trendsmap](https://cdn.lu.ma/cdn-cgi/image/format=auto,fit=cover,dpr=2,quality=75,width=1000,height=500/event-covers/6n/8acea1d2-ac2d-47d9-9a9e-6c4a86c8d638)

  ## ✅ कैप्टन अभिनंदन वर्धमान को 'ऑपरेशन बंदर' में भाग लेने के लिए वीर चक्र से सम्मानित किया गया है
![President awards Vir Chakra to Abhinandan Varthaman, who downed Pak F-16 |  Latest News India - Hindustan Times](https://images.hindustantimes.com/img/2021/11/22/550x309/769db768-4b7e-11ec-b72c-b1948978fab3_1637576805233.jpg)

  ## ✅ Geoff Allardyce को ICC का नया CEO नियुक्त किया गया है
![Geoff Allardice Reveals The Point System For The Next WTC Cycle](https://cricshots.com/geoff-allardice-reveals-the-point-system-for-the-next-wtc-cycle/geoff-allardice-icc/)

  ## ✅ यूनाइटेड किंगडम देश ने G7 विदेश और विकास मंत्रियो के शिखर सम्मलेन 2021 की मेजबानी की है
![Map of United Kingdom with Counties by sateda2012 | GraphicRiver](https://graphicriver.img.customer.envatousercontent.com/files/279709422/01_United%20Kingdom%20map_01.JPG?auto=compress%2Cformat&q=80&fit=crop&crop=top&max-h=8000&max-w=590&s=5836af85c12e3dc5e43f5cb7f702380f)

  ## ✅ एल सल्वाडोर देश में दुनिया की पहली 'बिटकॉइन सिटी' स्थापित की जाएगी
![1,461 El Salvador Map Stock Photos, Pictures &amp; Royalty-Free Images - iStock](https://media.istockphoto.com/vectors/el-salvador-political-map-vector-id509141403?k=20&m=509141403&s=612x612&w=0&h=EHONIjjUM0cvGlPiIOlBEBngHuaAwQXSp-EHZWMFeSk=)

  ## ✅ मध्य प्रदेश राज्य के पाताल पानी रेलवे स्टेशन का नाम बदलकर 'तात्या मामा रेलवे स्टेशन' रख दिया गया है
![Patalpani railway station to be renamed after dacoit Tantya Mama | All you  need to know about the brigand](https://d2r2ijn7njrktv.cloudfront.net/apnlive/uploads/2021/11/22171025/img201811131610091603593.jpg)

  ## ✅ तमिलनाडु राज्य ने सैयर मुश्ताक अलि ट्रॉफी 2021 को जीता है
![Syed Mushtaq Ali Trophy - Karnataka win in Super Over while Tamil Nadu,  Vidarbha and Hyderabad cruise into semi-finals](https://img1.hscicdn.com/image/upload/f_auto/lsci/db/PICTURES/CMS/295300/295382.4.jpg)

  ## ✅ सैयद अकबरुद्दीन ने 'इंडिया वर्सेज यूके' नामक पुस्तक को लिखा है
![Ex-UN Envoy Syed Akbaruddin Set To Release His First Book &#39;India Vs UK&#39;;  Read Details](https://img.republicworld.com/republic-prod/stories/promolarge/xhdpi/zeonebyqdhkkwtyv_1632201827.jpeg)

  ## ✅ आंध्र प्रदेश राज्य ने तीन राजधानी वाले कानून को निरस्त करने की घोषणा की है
![List of districts of Andhra Pradesh - Wikipedia](https://upload.wikimedia.org/wikipedia/commons/5/5c/Ap-districts.png)

  ## ✅ मेघालय राज्य सरकार ने विश्व खाद्य कार्यक्रम के साथ साझेदारी की है
![Meghalaya Govt Partners With WFP To Strengthen Public Distribution System,  Improve Food Security - Nagaland Page](https://nagalandpage.com/wp-content/uploads/2021/11/Meghalaya-MoU-food-security.jpg)

  ## ✅ सदर बाजार पुलिस स्टेशन(दिल्ली) को 2021 का सर्वेश्रेष्ठ पुलिस थाना पुरस्कार से सम्मानित किया गया है
![Delhi Sardar Bazar Police Station ranked as the best in India by Home  Ministry | Delhi Govt Jobs - YouTube](https://i.ytimg.com/vi/a1Cvgi9cetQ/maxresdefault.jpg)

  ## ✅ गृह मंत्री अमित शाह ने मणिपुर राज्य में रानी गाइडीन्लयू आदिवासी स्वतंत्रता सेनानी संग्रहालय का उदघाटन किया है
![Rani Gaidinliu Tribal Freedom Fighters Museum In Manipur : Latest update |  Drishti IAS English - YouTube](https://i.ytimg.com/vi/_XpdpzXbz8g/maxresdefault.jpg)

  ## ✅ अभिजीत बनर्जी ने 'कुकिंग टू सेव यॉर लाइफ' नामक पुस्तक लिखी है
![स्वत:चा जीव वाचवायचा असेल तर स्वयंपाक करा!&#39;- नोबेल विजेते अर्थतज्ज्ञ अभिजित  बॅनर्जी करतात रोज स्वयंपाक, म्हणतात.. - Marathi News |  economist-abhijit-banerjee ...](https://d3pc1xvrcw35tl.cloudfront.net/images/1200x900/abhijit_202111725432.jpg)

  ## ✅ ऑस्ट्रेलिया देश ICC पुरुष T-20 विश्व कप 2022 की मेजबानी करेगा
![Australia Maps | Map of Australia](https://ontheworldmap.com/australia/australia-map-1600.jpg)

  ## ✅ गुजरात का 'डांग' जिला राज्य का पहला जैविक/प्राकृतिक कृषि खेती वाला जिला बन गया है
![Map of Gujarat http://www.mapsofindia.com/maps/gujarat/ | Map, India world  map, Political map](https://i.pinimg.com/originals/c9/d7/ab/c9d7abae2a9cd1f77a40e6a78d903b76.jpg)

  ## ✅ 2025 में आशियाई युवा पैरा खेलो के 5वे संस्करण की मेजबानी ताशकंत उज़्बेकिस्तान के द्वारा की जाएगी
![Uzbekistan | Geography, History, Maps, People, &amp; Tourism | Britannica](https://cdn.britannica.com/56/7256-050-F9152A7C/Uzbekistan-map-features-locator.jpg)

  ## ✅ 19 नवंबर को गुरु नानक देव जी की 552वी जयंती मनाई गयी है
![Guru Nanak Jayanti (Gurpurab) Wishes, Messages and Quotes for Family and  Friends](https://cdn.cdnparenting.com/articles/2020/11/21183801/513113863.jpg)

  ## ✅ बान की मून ने 'रिसाल्व्ड:यूनाइटेड नेशन इन ए डिवाइडेड वर्ल्ड' नामक पुस्तक लिखा है
![Resolved - HarperCollins Publishers India](https://harpercollins.co.in/PowerPoint_jpg/9789354894190.jpg)

  ## ✅ डेविड टेनेंट और हैली स्कवायर को अंतराष्ट्रीय एमी पुरस्कार 2021 से सम्मानित किया गया है
![Emmy Awards 2021: The winners and nominees - BBC News](https://ichef.bbci.co.uk/news/976/cpsprodpb/29EC/production/_120623701_2peters-nicholson-reuters.jpg)

  ## ✅ अब्दुल्लाह हामडोक सूडान देश के नए प्रधानमंत्री बने है
![CIA Map of Africa: Made for use by U.S. government officials](https://geology.com/world/cia/map-of-africa.gif)

  ## ✅ मालदीव्स,भारत और श्रीलंका देशो के तटरक्षक बलो के बीच त्रिपक्षीय सैन्य अभ्यास दोस्ती आयोजित किया गया है
![15th Biennial Trilateral Coast Guard Exercise &#39;Dosti&#39; Between India,  Maldives &amp; Sri Lanka - PrepareExams](https://www.prepareexams.com/wp-content/uploads/2021/11/15th-Biennial-Trilateral-Coast-Guard-Exercise-%E2%80%98Dosti-Between-India-Maldives-Sri-Lanka.jpg)

  ## ✅ NASA ने धरती को एस्ट्रोइड हमलो से बचाने के लिए 'डार्ट' मिशन लांच किया है
![Will NASA&#39;s DART mission succeed? Assistant professor to measure success](http://eng.auburn.edu//images/news/dart-pic.jpg)

  ## ✅ उत्तराखंड राज्य के 'थुमला कंबल' को GI टैग मिला है
![Four products, including Kerela&#39;s Tirur betel and Mizoram&#39;s Puanchei, get GI  tag | India News | Zee News](https://english.cdn.zeenews.com/sites/default/files/2019/08/17/812018-mizo-shawls.jpg)

  ## ✅ केंद्रीय निति आयोग के 'सतत विकास लक्ष्य शहरी भारत सूचकांक 2021' में शिमला शहर शीर्ष स्थान पर रहा है
![Himachal Pradesh District Map, Himachal Pradesh Political Map](https://www.burningcompass.com/countries/india/maps/himachal-pradesh-district-map.jpg)

  ## ✅ डी सी सिंघानिया को 'टाइम्स मैगज़ीन इंडिया ने लाइफ टाइम अचीवमेंट पुरस्कार 2021' से सम्मानित किया है
![Sir DC Singhania BioPic | Singhania University - YouTube](https://i.ytimg.com/vi/FNxCnrGR9I8/maxresdefault.jpg)

  ## ✅ स्वीडन देश की पहली महिल प्रधानमंत्री मैगडालेना एंडरसन को पद संभालने के कुछ घंटे बाद ही स्तीफा देना पड़ा
![Sweden&#39;s First Woman PM Magdalena Andersson Resigns Hours After Making  History](https://images.thequint.com/thequint%2F2021-11%2F12e9e30c-062e-4ef9-9e61-8a6b1b11b35a%2FFE8qb__WQAAK_oY.jpg?rect=0%2C0%2C1200%2C675)

  ## ✅ मेघालय राज्य ने पहली बार ड्रोन के माध्यम से दवाइयों की डिलीवरी शुरू की है
![Meghalaya Map, Districts in Meghalaya](https://www.mapsofworld.com/india/meghalaya/meghalaya.gif)

  ## ✅ आंध्र प्रदेश राज्य की टीम ने राष्ट्रीय नेत्रहीन T20 क्रिकेट टूर्नामेंट 2021 का खिताब जीता है
![Vijay Goel felicitates T20 World Cup winning Indian Blind cricket team |  Cricket News | Zee News](https://english.cdn.zeenews.com/sites/default/files/2017/02/20/572947-indian-blind-wc-2017.jpg)

  ## ✅ कॉलिंस(Collins) डिक्शनरी ने NFT शब्द को 'वर्ड ऑफ़ द ईयर 2021' चुना है
![Collins - The Collins Word of the Year 2021 is...](https://resources.collins.co.uk/Dictionary/WOTY21/Animations/NFT/21.10.25_NFT_COLLINS_CK_1920x1080.gif)
