

















  ## ✅ हाल ही में जनरल विपिन सिंह रावत की Mi17V5 हेलीकॉप्टर दुर्घटना में मृत्यु हो गयी है, ये भारत के पहले CDS-चीफ ऑफ़ डिफेन्स स्टाफ थे
![IAF chopper with CDS Bipin Rawat crashes, 13 of 14 on board dead](https://i0.wp.com/www.eastmojo.com/wp-content/uploads/2021/12/death.jpg?fit=1200%2C675&ssl=1)

  ## ✅ हाल ही में स्विट्ज़रलैंड देश ने इच्छा मृत्यु की मशीन यानी 'सुसाइड पॉड' को मंजूरी दी है
![Gravitas: This &#39;Suicide Pod&#39; ensures &#39;painless death&#39; in a minute - YouTube](https://i.ytimg.com/vi/ZJBelNnLELQ/maxresdefault.jpg)

  ## ✅ हाल ही में नीलमणि फूकन को 56वा ज्ञानपीठ पुरस्कार 2021 से सम्मानित किया गया है
![Explained: Who are Nilmani Phookan Jr and Damodar Mauzo, the winners of  Jnanpith Award? | Explained News,The Indian Express](https://images.indianexpress.com/2021/12/explained-culture.jpg)

  ## ✅ हाल ही में जारी एक रिपोर्ट के अनुसार 2020 में भारत देश अरब देशो को खाने-पीने के निर्यात के मामले में पहले स्थान पर रहा है
![Best Products to Export from India to Dubai, UAE | Boxnbiz](https://www.boxnbiz.com/assets/images/resource/blog/best-products-to-export-from-india-to-dubai.webp)

  ## ✅ हाल ही में पुणे शहर में बिम्सटेक देशो का बहुराष्ट्रीय आपदा राहत अभ्यास 'PANEX 21' आयोजित किया गया है
![PANEX-21 | BIMSTEC - Daily Current News I Drishti IAS - YouTube](https://i.ytimg.com/vi/Kh-7sbIDBRE/hq720.jpg?sqp=-oaymwEhCK4FEIIDSFryq4qpAxMIARUAAAAAGAElAADIQj0AgKJD&rs=AOn4CLDaTUPC2WLH09MIJmuNpLvjZV0IFQ)

  ## ✅ हाल ही में UAE देश ढाई(2.5) दिनों का अवकाश सप्ताह या साढ़े चार(4.5) दिनों का कार्य सप्ताह अपनाने वाला विश्व का पहला देश बन गया है
![UAE: United Arab Emirates Map and Satellite Image](https://geology.com/world/united-arab-emirates-map.gif)







  # **[प्रतिदिन प्रैक्टिस सेट]**
  👉 https://forms.gle/gLJKrwLG8a7g8wiN9
